<svg height="0" overflow="hidden" width="0" xmlns="http://www.w3.org/2000/svg" xmlns:xlink="http://www.w3.org/1999/xlink">
<defs>
<symbol id="icon-speaker" viewBox="0 0 225 225" width="95mm" height="95mm">
  <g
     transform="translate(-22.848366,-24.207142)">
    <path
       d="M 85.91266,60.784255 82.96308,46.224762 c -0.14146,-0.698852 -0.57291,-1.305277 -1.1871,-1.667933 -0.61418,-0.362656 -1.3536,-0.447675 -2.03411,-0.234245 l -13.514214,4.241801 c -0.653345,0.204964 -1.36137,0.135114 -1.961797,-0.193322 l -4.144081,-2.266245 c -0.696384,-0.380647 -1.531409,-0.410986 -2.253192,-0.08149 -0.721783,0.329142 -1.246011,0.979664 -1.414992,1.754717 l -2.85115,13.101109 c -6.533092,1.141937 -10.754078,2.947107 -10.754078,4.979457 0,3.45193 12.174009,6.25087 27.19176,6.25087 15.017394,0 27.191404,-2.79894 27.191404,-6.25087 0,-2.09021 -4.46581,-3.93947 -11.31887,-5.074354"
       id="path858" />
    <path
       d="m 88.82449,75.437231 c -1.11267,-3.92994 -8.43034,-1.36525 -18.081631,-1.33173 -9.652001,-0.0335 -16.968965,-2.59821 -18.081626,1.33173 -1.106664,3.90772 -0.582084,7.29968 1.553633,8.54604 1.895475,1.10596 10.903304,5.20771 13.396737,2.63667 1.250245,-1.28905 2.239434,-1.70251 3.131256,-1.64712 0.891471,-0.0554 1.881011,0.35807 3.131251,1.64712 2.49344,2.57104 11.50091,-1.53071 13.39674,-2.63667 2.13537,-1.24636 2.6603,-4.63832 1.55364,-8.54604 z m -22.976423,4.07141 c -0.134056,1.46756 -0.743656,2.90583 -4.285192,2.57457 -3.543653,-0.33161 -3.881967,-1.84079 -3.748264,-3.30799 0.134055,-1.46721 1.922286,-1.19592 4.140906,-0.99378 2.218267,0.20285 4.026606,0.26035 3.89255,1.7272 z m 14.062073,2.57457 c -3.54118,0.33126 -4.15113,-1.10701 -4.28519,-2.57457 -0.1337,-1.46685 1.67428,-1.52435 3.89255,-1.7272 2.21862,-0.20214 4.00685,-0.47343 4.14091,0.99378 0.13405,1.4672 -0.20426,2.97638 -3.74827,3.30799"
       id="path860" />
  </g>
</symbol>
<symbol id="lines_1" height="184.13676mm" viewBox="0 0 52.937832 184.13676" width="52.937832mm">
	<g id="g8" transform="matrix(.26458333 0 0 .26458333 -36.50192 -27.852687)"><path id="path4" d="m223.48 188.81c0 6.34 5.13 11.48 11.46 11.48s11.46-5.14 11.46-11.48-5.13-11.48-11.46-11.48c-6.34 0-11.46 5.14-11.46 11.48z"/><path id="path6" d="m234.93 176.79c-6.61 0-11.99 5.39-11.99 12.01s5.38 12.01 11.99 12.01 11.99-5.39 11.99-12.01-5.38-12.01-11.99-12.01zm0 22.96c-6.02 0-10.92-4.91-10.92-10.95s4.9-10.95 10.92-10.95 10.92 4.91 10.92 10.95-4.89 10.95-10.92 10.95z"/></g><path id="path10" d="m304.99 358.02c-6.61 0-11.99 5.39-11.99 12.01s5.38 12.01 11.99 12.01 11.99-5.39 11.99-12.01-5.38-12.01-11.99-12.01zm0 22.96c-6.02 0-10.92-4.91-10.92-10.95s4.9-10.95 10.92-10.95 10.92 4.91 10.92 10.95c.01 6.04-4.89 10.95-10.92 10.95z" transform="matrix(.26458333 0 0 .26458333 -36.50192 -27.852687)"/><path id="path14" d="m178.55 675.68c-6.61 0-11.99 5.39-11.99 12.01s5.38 12.01 11.99 12.01 11.99-5.39 11.99-12.01-5.38-12.01-11.99-12.01zm0 22.96c-6.02 0-10.92-4.91-10.92-10.95s4.9-10.95 10.92-10.95 10.92 4.91 10.92 10.95-4.9 10.95-10.92 10.95z" transform="matrix(.26458333 0 0 .26458333 -36.50192 -27.852687)"/><path id="path18" d="m234.93 142.35c-3.45 0-6.26 2.81-6.26 6.27s2.81 6.27 6.26 6.27 6.26-2.81 6.26-6.27c0-3.45-2.81-6.27-6.26-6.27zm0 11.48c-2.87 0-5.2-2.34-5.2-5.21s2.33-5.21 5.2-5.21 5.2 2.34 5.2 5.21c0 2.88-2.33 5.21-5.2 5.21z" transform="matrix(.26458333 0 0 .26458333 -36.50192 -27.852687)"/><path id="path22" d="m151.03 486.87c-3.45 0-6.26 2.81-6.26 6.27s2.81 6.27 6.26 6.27 6.26-2.81 6.26-6.27-2.81-6.27-6.26-6.27zm0 11.48c-2.87 0-5.2-2.34-5.2-5.21s2.33-5.21 5.2-5.21 5.2 2.34 5.2 5.21c-.01 2.87-2.34 5.21-5.2 5.21z" transform="matrix(.26458333 0 0 .26458333 -36.50192 -27.852687)"/><path id="path26" d="m331.78 671.26c-3.45 0-6.26 2.81-6.26 6.27s2.81 6.27 6.26 6.27 6.26-2.81 6.26-6.27c0-3.45-2.81-6.27-6.26-6.27zm0 11.48c-2.87 0-5.2-2.34-5.2-5.21s2.33-5.21 5.2-5.21 5.2 2.34 5.2 5.21-2.33 5.21-5.2 5.21z" transform="matrix(.26458333 0 0 .26458333 -36.50192 -27.852687)"/><path id="path30" d="m193.67 541.66c-3.45 0-6.26 2.81-6.26 6.27s2.81 6.27 6.26 6.27 6.26-2.81 6.26-6.27c.01-3.46-2.8-6.27-6.26-6.27zm0 11.48c-2.87 0-5.2-2.34-5.2-5.21s2.33-5.21 5.2-5.21 5.2 2.34 5.2 5.21-2.33 5.21-5.2 5.21z" transform="matrix(.26458333 0 0 .26458333 -36.50192 -27.852687)"/><path id="path34" d="m203.36 738.91c-3.45 0-6.26 2.81-6.26 6.27s2.81 6.27 6.26 6.27 6.26-2.81 6.26-6.27-2.81-6.27-6.26-6.27zm0 11.48c-2.87 0-5.2-2.34-5.2-5.21s2.33-5.21 5.2-5.21 5.2 2.34 5.2 5.21c-.01 2.87-2.34 5.21-5.2 5.21z" transform="matrix(.26458333 0 0 .26458333 -36.50192 -27.852687)"/><path id="path38" d="m219.52 738.91c-3.45 0-6.26 2.81-6.26 6.27s2.81 6.27 6.26 6.27 6.26-2.81 6.26-6.27-2.81-6.27-6.26-6.27zm0 11.48c-2.87 0-5.2-2.34-5.2-5.21s2.33-5.21 5.2-5.21c2.86 0 5.2 2.34 5.2 5.21s-2.33 5.21-5.2 5.21z" transform="matrix(.26458333 0 0 .26458333 -36.50192 -27.852687)"/><g id="g46" transform="matrix(.26458333 0 0 .26458333 -36.50192 -27.852687)"><path id="path42" d="m172.82 745.18c0 3.17 2.56 5.74 5.73 5.74 3.16 0 5.73-2.57 5.73-5.74s-2.56-5.74-5.73-5.74c-3.16 0-5.73 2.57-5.73 5.74z"/><path id="path44" d="m178.55 738.91c-3.45 0-6.26 2.81-6.26 6.27s2.81 6.27 6.26 6.27 6.26-2.81 6.26-6.27-2.81-6.27-6.26-6.27zm0 11.48c-2.87 0-5.2-2.34-5.2-5.21s2.33-5.21 5.2-5.21 5.2 2.34 5.2 5.21-2.33 5.21-5.2 5.21z"/></g><path id="polygon48" d="m235.46 235.37h-1.06v381.69l-15.89 15.92v106.46h1.07v-106.02l15.88-15.92z" transform="matrix(.26458333 0 0 .26458333 -36.50192 -27.852687)"/><path id="path52" d="m234.93 211.87c-6.61 0-11.99 5.39-11.99 12.01s5.38 12.01 11.99 12.01 11.99-5.39 11.99-12.01-5.38-12.01-11.99-12.01zm0 22.96c-6.02 0-10.92-4.91-10.92-10.95s4.9-10.95 10.92-10.95 10.92 4.91 10.92 10.95c.01 6.04-4.89 10.95-10.92 10.95z" transform="matrix(.26458333 0 0 .26458333 -36.50192 -27.852687)"/><path id="polygon56" d="m217.69 606.63v-296.35l-23.64-23.69-.75.75 23.33 23.38v295.47l-13.95 13.98v119.82h1.06v-119.38z" transform="matrix(.26458333 0 0 .26458333 -36.50192 -27.852687)"/><path id="path60" d="m306.99 311.83c-6.61 0-11.99 5.39-11.99 12.01s5.38 12.01 11.99 12.01 11.99-5.39 11.99-12.01-5.38-12.01-11.99-12.01zm0 22.96c-6.02 0-10.93-4.91-10.93-10.95s4.9-10.95 10.93-10.95c6.02 0 10.92 4.91 10.92 10.95.01 6.04-4.89 10.95-10.92 10.95z" transform="matrix(.26458333 0 0 .26458333 -36.50192 -27.852687)"/><path id="path64" d="m190.43 325.4c-6.61 0-11.99 5.39-11.99 12.01s5.38 12.01 11.99 12.01 11.99-5.39 11.99-12.01-5.38-12.01-11.99-12.01zm0 22.96c-6.02 0-10.92-4.91-10.92-10.95s4.9-10.95 10.92-10.95 10.92 4.91 10.92 10.95-4.9 10.95-10.92 10.95z" transform="matrix(.26458333 0 0 .26458333 -36.50192 -27.852687)"/><path id="path68" d="m188.73 276.11c-3.45 0-6.26 2.81-6.26 6.27s2.81 6.27 6.26 6.27 6.26-2.81 6.26-6.27-2.8-6.27-6.26-6.27zm0 11.48c-2.87 0-5.2-2.34-5.2-5.21s2.33-5.21 5.2-5.21c2.86 0 5.2 2.34 5.2 5.21s-2.33 5.21-5.2 5.21z" transform="matrix(.26458333 0 0 .26458333 -36.50192 -27.852687)"/><path id="polygon72" d="m190.96 348.89h-1.06v151.32l-51.94 52.05v248.96h1.06v-248.52l51.94-52.05z" transform="matrix(.26458333 0 0 .26458333 -36.50192 -27.852687)"/><path id="rect78" d="m10.5992044066 157.13603454443h.2804583298v10.6547706991h-.2804583298z" stroke-width=".26458333"/><g id="g86" transform="matrix(.26458333 0 0 .26458333 -36.50192 -27.852687)"><path id="path82" d="m168.21 657.71c0-3.17-2.56-5.74-5.73-5.74-3.16 0-5.73 2.57-5.73 5.74s2.56 5.74 5.73 5.74 5.73-2.57 5.73-5.74z"/><path id="path84" d="m162.48 651.44c-3.45 0-6.26 2.81-6.26 6.27s2.81 6.27 6.26 6.27 6.26-2.81 6.26-6.27c.01-3.45-2.8-6.27-6.26-6.27zm0 11.48c-2.87 0-5.2-2.34-5.2-5.21s2.33-5.21 5.2-5.21 5.2 2.34 5.2 5.21c0 2.88-2.33 5.21-5.2 5.21z"/></g><path id="path88" d="m178.27 181.39c-3.45 0-6.26 2.81-6.26 6.27s2.81 6.27 6.26 6.27 6.26-2.81 6.26-6.27c0-3.45-2.81-6.27-6.26-6.27zm0 11.48c-2.87 0-5.2-2.34-5.2-5.21s2.33-5.21 5.2-5.21 5.2 2.34 5.2 5.21c-.01 2.88-2.34 5.21-5.2 5.21z" transform="matrix(.26458333 0 0 .26458333 -36.50192 -27.852687)"/><path id="path92" d="m155.92 419.42c-3.45 0-6.26 2.81-6.26 6.27s2.81 6.27 6.26 6.27 6.26-2.81 6.26-6.27-2.81-6.27-6.26-6.27zm0 11.48c-2.86 0-5.2-2.34-5.2-5.21s2.33-5.21 5.2-5.21 5.2 2.34 5.2 5.21-2.33 5.21-5.2 5.21z" transform="matrix(.26458333 0 0 .26458333 -36.50192 -27.852687)"/><path id="polygon96" d="m178.8 193.41h-1.06v52.59l-22.35 22.39v151.56h1.06v-151.12l22.35-22.39z" transform="matrix(.26458333 0 0 .26458333 -36.50192 -27.852687)"/><path id="path102" d="m167.93 105.27c-3.45 0-6.26 2.81-6.26 6.27s2.81 6.27 6.26 6.27 6.26-2.81 6.26-6.27-2.81-6.27-6.26-6.27zm0 11.48c-2.87 0-5.2-2.34-5.2-5.21s2.33-5.21 5.2-5.21 5.2 2.34 5.2 5.21-2.33 5.21-5.2 5.21z" transform="matrix(.26458333 0 0 .26458333 -36.50192 -27.852687)"/><path id="path106" d="m145.58 343.3c-3.45 0-6.26 2.81-6.26 6.27s2.81 6.27 6.26 6.27 6.26-2.81 6.26-6.27-2.8-6.27-6.26-6.27zm0 11.48c-2.86 0-5.2-2.34-5.2-5.21s2.33-5.21 5.2-5.21 5.2 2.34 5.2 5.21-2.33 5.21-5.2 5.21z" transform="matrix(.26458333 0 0 .26458333 -36.50192 -27.852687)"/><path id="polygon110" d="m168.46 117.28h-1.06v52.59l-22.35 22.4v151.56h1.07v-151.12l22.34-22.4z" transform="matrix(.26458333 0 0 .26458333 -36.50192 -27.852687)"/><path id="polygon116" d="m172.67 569.88 18.14-18.17-.76-.76-18.44 18.48v56.81l-9.66 9.68v16.05h1.07v-15.61l9.65-9.68z" transform="matrix(.26458333 0 0 .26458333 -36.50192 -27.852687)"/><path id="path120" d="m322.85 428.06h-44.97v27.63h44.97zm-43.9 1.07h42.84v25.5h-42.84z" transform="matrix(.26458333 0 0 .26458333 -36.50192 -27.852687)"/><g stroke-width=".26458333"><path id="rect124" d="m37.67665975297 83.6850615948h.2804583298v1.8626666432h-.2804583298z"/><path id="rect128" d="m39.39381085633 83.6850615948h.2804583298v1.8626666432h-.2804583298z"/><path id="rect132" d="m41.1109540222 83.6850615948h.2804583298v1.8626666432h-.2804583298z"/><path id="rect136" d="m42.82809718807 83.6850615948h.2804583298v1.8626666432h-.2804583298z"/><path id="rect140" d="m44.54788883307 83.6850615948h.2804583298v1.8626666432h-.2804583298z"/><path id="rect144" d="m46.26503993643 83.6850615948h.2804583298v1.8626666432h-.2804583298z"/><path id="rect148" d="m47.9821831023 83.6850615948h.2804583298v1.8626666432h-.2804583298z"/><path id="rect154" d="m37.67665975297 92.5750614828h.2804583298v1.8626666432h-.2804583298z"/><path id="rect158" d="m39.39381085633 92.5750614828h.2804583298v1.8626666432h-.2804583298z"/><path id="rect162" d="m41.1109540222 92.5750614828h.2804583298v1.8626666432h-.2804583298z"/><path id="rect166" d="m42.82809718807 92.5750614828h.2804583298v1.8626666432h-.2804583298z"/><path id="rect170" d="m44.54788883307 92.5750614828h.2804583298v1.8626666432h-.2804583298z"/><path id="rect174" d="m46.26503993643 92.5750614828h.2804583298v1.8626666432h-.2804583298z"/><path id="rect178" d="m47.9821831023 92.5750614828h.2804583298v1.8626666432h-.2804583298z"/><path id="rect184" d="m36.33522756153 97.86143906203h13.26885452867v1.1668124853h-13.26885452867z"/><path id="rect188" d="m36.33522756153 100.35910040557h13.26885452867v1.1668124853h-13.26885452867z"/><path id="rect192" d="m36.33522756153 102.85676704077h13.26885452867v1.1668124853h-13.26885452867z"/><path id="rect196" d="m36.33522756153 105.35443367597h13.26885452867v1.1668124853h-13.26885452867z"/><path id="rect200" d="m36.33522756153 107.85210824867h13.26885452867v1.1668124853h-13.26885452867z"/><path id="rect206" d="m28.0802250197 145.16363886193h6.8976874131v1.5425208139h-6.8976874131z"/><path id="rect210" d="m28.0802250197 148.47093048693h6.8976874131v1.5425208139h-6.8976874131z"/><path id="rect214" d="m28.0802250197 151.7755736328h6.8976874131v1.5425208139h-6.8976874131z"/><path id="rect218" d="m28.0802250197 155.08023265367h6.8976874131v1.5425208139h-6.8976874131z"/><path id="rect222" d="m28.0802250197 158.38487579953h6.8976874131v1.5425208139h-6.8976874131z"/></g>
</symbol>
<symbol id="lines_2" height="118.43279mm" viewBox="0 0 115.87162 118.43279" width="115.87162mm">
	<g transform="matrix(.26458333 0 0 .26458333 -144.99960112938 -145.40970677186)"><g id="g950"><path id="path946" d="m875.72 607.79c0 5.64-4.57 10.21-10.21 10.21s-10.21-4.57-10.21-10.21 4.57-10.21 10.21-10.21 10.21 4.57 10.21 10.21z"/><path id="path948" d="m865.51 597.11c5.89 0 10.68 4.79 10.68 10.68s-4.79 10.68-10.68 10.68-10.68-4.79-10.68-10.68 4.79-10.68 10.68-10.68zm0 20.41c5.37 0 9.73-4.37 9.73-9.73 0-5.37-4.37-9.73-9.73-9.73s-9.73 4.37-9.73 9.73c0 5.37 4.36 9.73 9.73 9.73z"/></g><path id="path952" d="m683.16 701.36c5.89 0 10.68 4.79 10.68 10.68s-4.79 10.68-10.68 10.68-10.68-4.79-10.68-10.68 4.79-10.68 10.68-10.68zm0 20.41c5.37 0 9.73-4.37 9.73-9.73s-4.37-9.73-9.73-9.73c-5.37 0-9.73 4.37-9.73 9.73s4.36 9.73 9.73 9.73z"/><path id="path956" d="m959.74 674.87c5.89 0 10.68 4.79 10.68 10.68s-4.79 10.68-10.68 10.68-10.68-4.79-10.68-10.68 4.79-10.68 10.68-10.68zm0 20.41c5.37 0 9.73-4.37 9.73-9.73s-4.37-9.73-9.73-9.73-9.73 4.37-9.73 9.73 4.36 9.73 9.73 9.73z"/><path id="path960" d="m776.39 634.23c5.89 0 10.68 4.79 10.68 10.68s-4.79 10.68-10.68 10.68-10.68-4.79-10.68-10.68 4.79-10.68 10.68-10.68zm0 20.41c5.37 0 9.73-4.37 9.73-9.73s-4.37-9.73-9.73-9.73-9.73 4.37-9.73 9.73 4.36 9.73 9.73 9.73z"/><path id="path964" d="m622.75 660.43c3.08 0 5.58 2.5 5.58 5.58s-2.5 5.58-5.58 5.58-5.58-2.5-5.58-5.58c.01-3.08 2.51-5.58 5.58-5.58zm0 10.2c2.55 0 4.63-2.08 4.63-4.63s-2.08-4.63-4.63-4.63-4.63 2.08-4.63 4.63 2.08 4.63 4.63 4.63z"/><path id="path968" d="m980.39 659.03c3.08 0 5.58 2.5 5.58 5.58s-2.5 5.58-5.58 5.58-5.58-2.5-5.58-5.58 2.51-5.58 5.58-5.58zm0 10.2c2.55 0 4.63-2.08 4.63-4.63s-2.08-4.63-4.63-4.63-4.63 2.08-4.63 4.63 2.08 4.63 4.63 4.63z"/><path id="path972" d="m908.48 674.87c3.08 0 5.58 2.5 5.58 5.58s-2.5 5.58-5.58 5.58-5.58-2.5-5.58-5.58 2.51-5.58 5.58-5.58zm0 10.2c2.55 0 4.63-2.08 4.63-4.63s-2.08-4.63-4.63-4.63-4.63 2.08-4.63 4.63c0 2.56 2.08 4.63 4.63 4.63z"/><path id="path976" d="m841.49 690.18c3.08 0 5.58 2.5 5.58 5.58s-2.5 5.58-5.58 5.58-5.58-2.5-5.58-5.58 2.5-5.58 5.58-5.58zm0 10.2c2.55 0 4.63-2.08 4.63-4.63s-2.08-4.63-4.63-4.63-4.63 2.08-4.63 4.63c0 2.56 2.07 4.63 4.63 4.63z"/><path id="path980" d="m704.88 742.69c3.08 0 5.58 2.5 5.58 5.58s-2.5 5.58-5.58 5.58-5.58-2.5-5.58-5.58c0-3.07 2.51-5.58 5.58-5.58zm0 10.21c2.55 0 4.63-2.08 4.63-4.63s-2.08-4.63-4.63-4.63-4.63 2.08-4.63 4.63 2.08 4.63 4.63 4.63z"/><path id="path984" d="m647.84 737.59c3.08 0 5.58 2.5 5.58 5.58s-2.5 5.58-5.58 5.58-5.58-2.5-5.58-5.58c.01-3.08 2.51-5.58 5.58-5.58zm0 10.21c2.55 0 4.63-2.08 4.63-4.63s-2.08-4.63-4.63-4.63-4.63 2.08-4.63 4.63 2.08 4.63 4.63 4.63z"/><path id="path988" d="m574.76 754.15c3.08 0 5.58 2.5 5.58 5.58s-2.5 5.58-5.58 5.58-5.58-2.5-5.58-5.58 2.5-5.58 5.58-5.58zm0 10.2c2.55 0 4.63-2.08 4.63-4.63s-2.08-4.63-4.63-4.63-4.63 2.08-4.63 4.63c0 2.56 2.07 4.63 4.63 4.63z"/><path id="path992" d="m574.76 737.59c3.08 0 5.58 2.5 5.58 5.58s-2.5 5.58-5.58 5.58-5.58-2.5-5.58-5.58 2.5-5.58 5.58-5.58zm0 10.21c2.55 0 4.63-2.08 4.63-4.63s-2.08-4.63-4.63-4.63-4.63 2.08-4.63 4.63 2.07 4.63 4.63 4.63z"/><path id="path996" d="m553.61 772.92c3.07 0 5.58 2.5 5.58 5.58s-2.5 5.58-5.58 5.58-5.58-2.5-5.58-5.58 2.5-5.58 5.58-5.58zm0 10.21c2.55 0 4.63-2.08 4.63-4.63s-2.08-4.63-4.63-4.63-4.63 2.08-4.63 4.63 2.08 4.63 4.63 4.63z"/><path id="path1000" d="m872.94 723.98c3.08 0 5.58 2.5 5.58 5.58s-2.5 5.58-5.58 5.58-5.58-2.5-5.58-5.58 2.5-5.58 5.58-5.58zm0 10.2c2.55 0 4.63-2.08 4.63-4.63s-2.08-4.63-4.63-4.63-4.63 2.08-4.63 4.63c0 2.56 2.07 4.63 4.63 4.63z"/><path id="path1004" d="m888.64 631.02c3.08 0 5.58 2.5 5.58 5.58s-2.5 5.58-5.58 5.58-5.58-2.5-5.58-5.58 2.51-5.58 5.58-5.58zm0 10.2c2.55 0 4.63-2.08 4.63-4.63s-2.08-4.63-4.63-4.63-4.63 2.08-4.63 4.63c.01 2.56 2.08 4.63 4.63 4.63z"/><path id="path1008" d="m754.76 677.38c3.08 0 5.58 2.5 5.58 5.58 0 3.07-2.5 5.58-5.58 5.58s-5.58-2.5-5.58-5.58 2.5-5.58 5.58-5.58zm0 10.2c2.55 0 4.63-2.08 4.63-4.63s-2.08-4.63-4.63-4.63-4.63 2.08-4.63 4.63c0 2.56 2.07 4.63 4.63 4.63z"/><path id="path1012" d="m926.52 715.59c3.07 0 5.58 2.5 5.58 5.58s-2.5 5.58-5.58 5.58-5.58-2.5-5.58-5.58 2.5-5.58 5.58-5.58zm0 10.21c2.55 0 4.63-2.08 4.63-4.63s-2.08-4.63-4.63-4.63-4.63 2.08-4.63 4.63 2.08 4.63 4.63 4.63z"/><g id="g1020"><path id="path1016" d="m777.86 724.45c0 2.82-2.28 5.1-5.1 5.1s-5.1-2.28-5.1-5.1 2.28-5.1 5.1-5.1c2.81 0 5.1 2.28 5.1 5.1z"/><path id="path1018" d="m772.75 718.88c3.08 0 5.58 2.5 5.58 5.58 0 3.07-2.5 5.58-5.58 5.58s-5.58-2.5-5.58-5.58c.01-3.08 2.51-5.58 5.58-5.58zm0 10.2c2.55 0 4.63-2.08 4.63-4.63s-2.08-4.63-4.63-4.63-4.63 2.08-4.63 4.63 2.08 4.63 4.63 4.63z"/></g><g id="g1026"><path id="path1022" d="m595.79 717.14c0 2.82-2.28 5.1-5.1 5.1s-5.1-2.28-5.1-5.1 2.28-5.1 5.1-5.1 5.1 2.28 5.1 5.1z"/><path id="path1024" d="m590.69 711.56c3.08 0 5.58 2.5 5.58 5.58s-2.5 5.58-5.58 5.58-5.58-2.5-5.58-5.58 2.5-5.58 5.58-5.58zm0 10.21c2.55 0 4.63-2.08 4.63-4.63s-2.08-4.63-4.63-4.63-4.63 2.08-4.63 4.63 2.08 4.63 4.63 4.63z"/></g><g id="g1032"><path id="path1028" d="m641.06 780.55c0 2.82-2.28 5.1-5.1 5.1s-5.1-2.28-5.1-5.1 2.28-5.1 5.1-5.1c2.81 0 5.1 2.28 5.1 5.1z"/><path id="path1030" d="m635.95 774.97c3.08 0 5.58 2.5 5.58 5.58s-2.5 5.58-5.58 5.58-5.58-2.5-5.58-5.58 2.51-5.58 5.58-5.58zm0 10.21c2.55 0 4.63-2.08 4.63-4.63s-2.08-4.63-4.63-4.63-4.63 2.08-4.63 4.63 2.08 4.63 4.63 4.63z"/></g><path id="path1034" d="m772.75 734.93c3.08 0 5.58 2.5 5.58 5.58 0 3.07-2.5 5.58-5.58 5.58s-5.58-2.5-5.58-5.58c.01-3.08 2.51-5.58 5.58-5.58zm0 10.2c2.55 0 4.63-2.08 4.63-4.63s-2.08-4.63-4.63-4.63-4.63 2.08-4.63 4.63c0 2.56 2.08 4.63 4.63 4.63z"/><path id="path1038" d="m772.75 750.98c3.08 0 5.58 2.5 5.58 5.58s-2.5 5.58-5.58 5.58-5.58-2.5-5.58-5.58c.01-3.08 2.51-5.58 5.58-5.58zm0 10.21c2.55 0 4.63-2.08 4.63-4.63s-2.08-4.63-4.63-4.63-4.63 2.08-4.63 4.63 2.08 4.63 4.63 4.63z"/><g id="g1046"><path id="path1042" d="m869.59 800.16c0-2.82 2.28-5.1 5.1-5.1s5.1 2.28 5.1 5.1-2.28 5.1-5.1 5.1c-2.81 0-5.1-2.28-5.1-5.1z"/><path id="path1044" d="m874.7 794.58c3.08 0 5.58 2.5 5.58 5.58s-2.5 5.58-5.58 5.58-5.58-2.5-5.58-5.58c0-3.07 2.5-5.58 5.58-5.58zm0 10.21c2.55 0 4.63-2.08 4.63-4.63s-2.08-4.63-4.63-4.63-4.63 2.08-4.63 4.63 2.07 4.63 4.63 4.63z"/></g><path id="path1048" d="m874.7 778.53c3.08 0 5.58 2.5 5.58 5.58s-2.5 5.58-5.58 5.58-5.58-2.5-5.58-5.58 2.5-5.58 5.58-5.58zm0 10.21c2.55 0 4.63-2.08 4.63-4.63s-2.08-4.63-4.63-4.63-4.63 2.08-4.63 4.63 2.07 4.63 4.63 4.63z"/><path id="path1052" d="m874.7 762.48c3.08 0 5.58 2.5 5.58 5.58s-2.5 5.58-5.58 5.58-5.58-2.5-5.58-5.58 2.5-5.58 5.58-5.58zm0 10.2c2.55 0 4.63-2.08 4.63-4.63s-2.08-4.63-4.63-4.63-4.63 2.08-4.63 4.63c0 2.56 2.07 4.63 4.63 4.63z"/><path id="path1056" d="m949.53 549.58c3.08 0 5.58 2.5 5.58 5.58s-2.5 5.58-5.58 5.58-5.58-2.5-5.58-5.58 2.51-5.58 5.58-5.58zm0 10.21c2.55 0 4.63-2.08 4.63-4.63s-2.08-4.63-4.63-4.63-4.63 2.08-4.63 4.63 2.08 4.63 4.63 4.63z"/><path id="path1060" d="m931.62 677.38c3.08 0 5.58 2.5 5.58 5.58 0 3.07-2.5 5.58-5.58 5.58-3.07 0-5.58-2.5-5.58-5.58s2.51-5.58 5.58-5.58zm0 10.2c2.55 0 4.63-2.08 4.63-4.63s-2.08-4.63-4.63-4.63-4.63 2.08-4.63 4.63c0 2.56 2.08 4.63 4.63 4.63z"/></g><path id="rect1064" d="m108.80460665225 38.67414507564h.2513541635v64.7408950177h-.2513541635z" stroke-width=".26458333"/><path id="path1068" d="m730.93 629.13c3.08 0 5.58 2.5 5.58 5.58s-2.5 5.58-5.58 5.58-5.58-2.5-5.58-5.58 2.51-5.58 5.58-5.58zm0 10.2c2.55 0 4.63-2.08 4.63-4.63s-2.08-4.63-4.63-4.63-4.63 2.08-4.63 4.63c0 2.56 2.08 4.63 4.63 4.63z" transform="matrix(.26458333 0 0 .26458333 -144.99960112938 -145.40970677186)"/><path id="path1072" d="m706.04 676.57c3.08 0 5.58 2.5 5.58 5.58s-2.5 5.58-5.58 5.58c-3.07 0-5.58-2.5-5.58-5.58s2.5-5.58 5.58-5.58zm0 10.21c2.55 0 4.63-2.08 4.63-4.63s-2.08-4.63-4.63-4.63-4.63 2.08-4.63 4.63 2.07 4.63 4.63 4.63z" transform="matrix(.26458333 0 0 .26458333 -144.99960112938 -145.40970677186)"/><g id="g1080" transform="matrix(.26458333 0 0 .26458333 -144.99960112938 -145.40970677186)"><path id="path1076" d="m700.59 660.9c0-2.82 2.28-5.1 5.1-5.1s5.1 2.28 5.1 5.1-2.28 5.1-5.1 5.1-5.1-2.28-5.1-5.1z"/><path id="path1078" d="m705.69 655.32c3.08 0 5.58 2.5 5.58 5.58 0 3.07-2.5 5.58-5.58 5.58s-5.58-2.5-5.58-5.58 2.51-5.58 5.58-5.58zm0 10.21c2.55 0 4.63-2.08 4.63-4.63s-2.08-4.63-4.63-4.63-4.63 2.08-4.63 4.63 2.08 4.63 4.63 4.63z"/></g><path id="polygon1082" d="m730.46 639.81h.94v46.75l19.91 19.91v248.29h-.95v-247.9l-19.9-19.91z" transform="matrix(.26458333 0 0 .26458333 -144.99960112938 -145.40970677186)"/><path id="polygon1086" d="m738.52 942.08h-.94v-227.74l-27.93-27.93.67-.67 28.2 28.2z" transform="matrix(.26458333 0 0 .26458333 -144.99960112938 -145.40970677186)"/><path id="polygon1090" d="m922.97 648.45v-67.12l22.63-22.63.67.67-22.35 22.35v66.34l8 8v21.79h-.95v-21.4z" transform="matrix(.26458333 0 0 .26458333 -144.99960112938 -145.40970677186)"/><path id="polygon1094" d="m908.01 684.57h.95v29.46l-11.99 11.99v271.18h-.95v-271.58l11.99-11.99z" transform="matrix(.26458333 0 0 .26458333 -144.99960112938 -145.40970677186)"/><g id="g1102" transform="matrix(.26458333 0 0 .26458333 -144.99960112938 -145.40970677186)"><path id="path1098" d="m926.52 755.39c0 2.82-2.28 5.1-5.1 5.1s-5.1-2.28-5.1-5.1 2.28-5.1 5.1-5.1c2.81 0 5.1 2.28 5.1 5.1z"/><path id="path1100" d="m921.42 749.81c3.08 0 5.58 2.5 5.58 5.58s-2.5 5.58-5.58 5.58-5.58-2.5-5.58-5.58 2.5-5.58 5.58-5.58zm0 10.21c2.55 0 4.63-2.08 4.63-4.63s-2.08-4.63-4.63-4.63-4.63 2.08-4.63 4.63 2.07 4.63 4.63 4.63z"/></g><path id="polygon1104" d="m906.13 772.17v200.95h-.95v-201.34l13.17-13.17.67.67z" transform="matrix(.26458333 0 0 .26458333 -144.99960112938 -145.40970677186)"/><path id="polygon1108" d="m944.34 935.34h-.94v-196.4l-14.16-14.15.67-.67 14.43 14.43z" transform="matrix(.26458333 0 0 .26458333 -144.99960112938 -145.40970677186)"/><path id="polygon1112" d="m888.17 641.7h.95v37.61l-50.66 50.66v210.48h-.95v-210.87l50.66-50.66z" transform="matrix(.26458333 0 0 .26458333 -144.99960112938 -145.40970677186)"/><path id="polygon1116" d="m853.45 749.74v208.7h-.95v-209.09l16.76-16.76.67.67z" transform="matrix(.26458333 0 0 .26458333 -144.99960112938 -145.40970677186)"/><path id="polygon1120" d="m827.4 711.01v247.43h-.95v-247.82l11.2-11.2.67.67z" transform="matrix(.26458333 0 0 .26458333 -144.99960112938 -145.40970677186)"/><path id="polygon1124" d="m804.18 942.08h-.95v-271.5l-18.34-18.34.67-.67 18.62 18.62z" transform="matrix(.26458333 0 0 .26458333 -144.99960112938 -145.40970677186)"/><path id="polygon1128" d="m786.12 715.12-27.54-27.53.67-.68 27.82 27.82v62.05l-14.2 14.19v146.38h-.95v-146.77l14.2-14.19z" transform="matrix(.26458333 0 0 .26458333 -144.99960112938 -145.40970677186)"/><path id="polygon1132" d="m686.26 766.79v168.55h-.94v-168.94l15.28-15.28.67.67z" transform="matrix(.26458333 0 0 .26458333 -144.99960112938 -145.40970677186)"/><path id="polygon1136" d="m608.51 931.45h-.95v-196.31l-13.63-13.64.67-.67 13.91 13.92z" transform="matrix(.26458333 0 0 .26458333 -144.99960112938 -145.40970677186)"/><path id="polygon1140" d="m623.23 767.66v163.79h-.95v-164.18l21.99-22 .67.67z" transform="matrix(.26458333 0 0 .26458333 -144.99960112938 -145.40970677186)"/><path id="rect1144" d="m23.13780812735 62.71683227274h.2513541635v37.359166196h-.2513541635z" stroke-width=".26458333"/><path id="polygon1148" d="m567.62 919.96h-.95v-128.39l-9.49-9.48.67-.67 9.77 9.76z" transform="matrix(.26458333 0 0 .26458333 -144.99960112938 -145.40970677186)"/><path id="rect1152" d="m6.94532156052 56.95156680371h.2513541635v55.1206451389h-.2513541635z" stroke-width=".26458333"/>
</symbol>
<symbol id="lines_3" height="267.29532mm" viewBox="0 0 45.177605 267.29531" width="45.177605mm">
	<g transform="matrix(.26458333 0 0 .26458333 -442.8119504329 -93.44554083251)"><g id="g1182"><path id="path1178" d="m1771.79 427.45c0 5.64 4.59 10.21 10.26 10.21s10.26-4.57 10.26-10.21-4.59-10.21-10.26-10.21-10.26 4.57-10.26 10.21z"/><path id="path1180" d="m1782.05 416.77c-5.92 0-10.74 4.79-10.74 10.68s4.82 10.68 10.74 10.68 10.74-4.79 10.74-10.68c-.01-5.89-4.82-10.68-10.74-10.68zm0 20.41c-5.4 0-9.78-4.37-9.78-9.73 0-5.37 4.39-9.73 9.78-9.73 5.4 0 9.78 4.37 9.78 9.73s-4.39 9.73-9.78 9.73z"/></g><g id="g1188"><path id="path1184" d="m1674.1 721.43c0 5.64 4.59 10.21 10.26 10.21s10.26-4.57 10.26-10.21-4.59-10.21-10.26-10.21c-5.66.01-10.26 4.58-10.26 10.21z"/><path id="path1186" d="m1684.36 710.75c-5.92 0-10.74 4.79-10.74 10.68s4.82 10.68 10.74 10.68 10.74-4.79 10.74-10.68-4.81-10.68-10.74-10.68zm0 20.41c-5.4 0-9.78-4.37-9.78-9.73 0-5.37 4.39-9.73 9.78-9.73s9.78 4.37 9.78 9.73c.01 5.37-4.38 9.73-9.78 9.73z"/></g><path id="path1190" d="m1825.99 672.01c-5.92 0-10.74 4.79-10.74 10.68s4.82 10.68 10.74 10.68 10.74-4.79 10.74-10.68c-.01-5.89-4.82-10.68-10.74-10.68zm0 20.41c-5.4 0-9.79-4.37-9.79-9.73s4.39-9.73 9.79-9.73c5.39 0 9.78 4.37 9.78 9.73s-4.39 9.73-9.78 9.73z"/><path id="path1194" d="m1825.99 715.6c-5.92 0-10.74 4.79-10.74 10.68s4.82 10.68 10.74 10.68 10.74-4.79 10.74-10.68-4.82-10.68-10.74-10.68zm0 20.41c-5.4 0-9.79-4.37-9.79-9.73s4.39-9.73 9.79-9.73c5.39 0 9.78 4.37 9.78 9.73s-4.39 9.73-9.78 9.73z"/><path id="path1198" d="m1684.36 632.46c-5.92 0-10.74 4.79-10.74 10.68s4.82 10.68 10.74 10.68 10.74-4.79 10.74-10.68-4.81-10.68-10.74-10.68zm0 20.41c-5.4 0-9.78-4.37-9.78-9.73 0-5.37 4.39-9.73 9.78-9.73s9.78 4.37 9.78 9.73c.01 5.36-4.38 9.73-9.78 9.73z"/><path id="path1202" d="m1731.55 860.27c-5.92 0-10.74 4.79-10.74 10.68s4.82 10.68 10.74 10.68 10.74-4.79 10.74-10.68-4.82-10.68-10.74-10.68zm0 20.41c-5.4 0-9.78-4.37-9.78-9.73s4.39-9.73 9.78-9.73 9.78 4.37 9.78 9.73-4.39 9.73-9.78 9.73z"/><path id="path1206" d="m1829.2 996.82c-3.09 0-5.61 2.5-5.61 5.58s2.52 5.58 5.61 5.58 5.61-2.5 5.61-5.58-2.52-5.58-5.61-5.58zm0 10.21c-2.57 0-4.65-2.08-4.65-4.63s2.09-4.63 4.65-4.63 4.65 2.08 4.65 4.63-2.08 4.63-4.65 4.63z"/><path id="path1210" d="m1782.05 386.15c-3.09 0-5.61 2.5-5.61 5.58s2.52 5.58 5.61 5.58 5.61-2.5 5.61-5.58-2.52-5.58-5.61-5.58zm0 10.2c-2.57 0-4.65-2.08-4.65-4.63s2.09-4.63 4.65-4.63c2.57 0 4.65 2.08 4.65 4.63s-2.09 4.63-4.65 4.63z"/><path id="path1214" d="m1706.9 692.42c-3.09 0-5.61 2.5-5.61 5.58 0 3.07 2.52 5.58 5.61 5.58s5.61-2.5 5.61-5.58-2.52-5.58-5.61-5.58zm0 10.21c-2.57 0-4.65-2.08-4.65-4.63s2.09-4.63 4.65-4.63c2.57 0 4.65 2.08 4.65 4.63s-2.08 4.63-4.65 4.63z"/><path id="path1218" d="m1745.09 741.13c-3.09 0-5.61 2.5-5.61 5.58s2.52 5.58 5.61 5.58 5.61-2.5 5.61-5.58-2.51-5.58-5.61-5.58zm0 10.21c-2.57 0-4.65-2.08-4.65-4.63s2.09-4.63 4.65-4.63c2.57 0 4.65 2.08 4.65 4.63.01 2.55-2.08 4.63-4.65 4.63z"/><path id="path1222" d="m1753.77 916.48c-3.09 0-5.61 2.5-5.61 5.58 0 3.07 2.52 5.58 5.61 5.58s5.61-2.5 5.61-5.58c-.01-3.08-2.52-5.58-5.61-5.58zm0 10.21c-2.57 0-4.65-2.08-4.65-4.63s2.09-4.63 4.65-4.63c2.57 0 4.65 2.08 4.65 4.63s-2.09 4.63-4.65 4.63z"/><path id="path1226" d="m1768.24 916.48c-3.09 0-5.61 2.5-5.61 5.58 0 3.07 2.52 5.58 5.61 5.58s5.61-2.5 5.61-5.58-2.51-5.58-5.61-5.58zm0 10.21c-2.57 0-4.65-2.08-4.65-4.63s2.09-4.63 4.65-4.63c2.57 0 4.65 2.08 4.65 4.63.01 2.55-2.08 4.63-4.65 4.63z"/><g id="g1234"><path id="path1230" d="m1726.42 922.06c0 2.82 2.3 5.1 5.13 5.1s5.13-2.28 5.13-5.1-2.3-5.1-5.13-5.1-5.13 2.28-5.13 5.1z"/><path id="path1232" d="m1731.55 916.48c-3.09 0-5.61 2.5-5.61 5.58 0 3.07 2.52 5.58 5.61 5.58s5.61-2.5 5.61-5.58-2.52-5.58-5.61-5.58zm0 10.21c-2.57 0-4.65-2.08-4.65-4.63s2.09-4.63 4.65-4.63 4.65 2.08 4.65 4.63-2.08 4.63-4.65 4.63z"/></g><g id="g1240"><path id="path1236" d="m1824.07 1026.72c0 2.82 2.3 5.1 5.13 5.1s5.13-2.28 5.13-5.1-2.3-5.1-5.13-5.1-5.13 2.29-5.13 5.1z"/><path id="path1238" d="m1829.2 1021.15c-3.09 0-5.61 2.5-5.61 5.58s2.52 5.58 5.61 5.58 5.61-2.5 5.61-5.58-2.52-5.58-5.61-5.58zm0 10.2c-2.57 0-4.65-2.08-4.65-4.63s2.09-4.63 4.65-4.63 4.65 2.08 4.65 4.63c0 2.56-2.08 4.63-4.65 4.63z"/></g><path id="path1242" d="m1829.2 1045.47c-3.09 0-5.61 2.5-5.61 5.58s2.52 5.58 5.61 5.58 5.61-2.5 5.61-5.58-2.52-5.58-5.61-5.58zm0 10.21c-2.57 0-4.65-2.08-4.65-4.63s2.09-4.63 4.65-4.63 4.65 2.08 4.65 4.63-2.08 4.63-4.65 4.63z"/></g><path id="rect1246" d="m22.1958978754 166.07101310632h.2513541635v99.5732904122h-.2513541635z" stroke-width=".26458333"/><path id="path1250" d="m1757.98 959.97c-5.92 0-10.74 4.79-10.74 10.68s4.82 10.68 10.74 10.68 10.74-4.79 10.74-10.68-4.82-10.68-10.74-10.68zm0 20.41c-5.4 0-9.78-4.37-9.78-9.73s4.39-9.73 9.78-9.73c5.4 0 9.78 4.37 9.78 9.73s-4.38 9.73-9.78 9.73z" transform="matrix(.26458333 0 0 .26458333 -442.8119504329 -93.44554083251)"/><path id="polygon1254" d="m1741.59 1047.84v307.42h.95v-307.81l-21.17-21.06-.68.67z" transform="matrix(.26458333 0 0 .26458333 -442.8119504329 -93.44554083251)"/><path id="polygon1258" d="m1802.4 929.26h-.95v133.84l-22.35 22.22v278.11h.95v-277.71l22.35-22.23z" transform="matrix(.26458333 0 0 .26458333 -442.8119504329 -93.44554083251)"/><path id="path1262" d="m1801.92 908.37c-5.92 0-10.74 4.79-10.74 10.68s4.82 10.68 10.74 10.68 10.74-4.79 10.74-10.68-4.82-10.68-10.74-10.68zm0 20.41c-5.4 0-9.78-4.37-9.78-9.73 0-5.37 4.39-9.73 9.78-9.73 5.4 0 9.78 4.37 9.78 9.73.01 5.37-4.38 9.73-9.78 9.73z" transform="matrix(.26458333 0 0 .26458333 -442.8119504329 -93.44554083251)"/><path id="path1266" d="m1718.12 1060.89c-5.92 0-10.74 4.79-10.74 10.68s4.82 10.68 10.74 10.68 10.74-4.79 10.74-10.68-4.82-10.68-10.74-10.68zm0 20.41c-5.4 0-9.78-4.37-9.78-9.73s4.39-9.73 9.78-9.73c5.4 0 9.78 4.37 9.78 9.73s-4.38 9.73-9.78 9.73z" transform="matrix(.26458333 0 0 .26458333 -442.8119504329 -93.44554083251)"/><path id="path1270" d="m1716.61 1017.07c-3.09 0-5.61 2.5-5.61 5.58s2.52 5.58 5.61 5.58 5.61-2.5 5.61-5.58c-.01-3.07-2.52-5.58-5.61-5.58zm0 10.21c-2.57 0-4.65-2.08-4.65-4.63s2.09-4.63 4.65-4.63 4.65 2.08 4.65 4.63-2.09 4.63-4.65 4.63z" transform="matrix(.26458333 0 0 .26458333 -442.8119504329 -93.44554083251)"/><path id="rect1274" d="m11.6496063416 192.77541389489h.2513541635v73.7102699047h-.2513541635z" stroke-width=".26458333"/><path id="polygon1280" d="m1782.52 468.84h-.95v339.32l-14.23 14.15v94.65h.95v-94.26l14.23-14.15z" transform="matrix(.26458333 0 0 .26458333 -442.8119504329 -93.44554083251)"/><path id="path1284" d="m1782.05 447.95c-5.92 0-10.74 4.79-10.74 10.68s4.82 10.68 10.74 10.68 10.74-4.79 10.74-10.68c-.01-5.89-4.82-10.68-10.74-10.68zm0 20.41c-5.4 0-9.78-4.37-9.78-9.73s4.39-9.73 9.78-9.73c5.4 0 9.78 4.37 9.78 9.73s-4.39 9.73-9.78 9.73z" transform="matrix(.26458333 0 0 .26458333 -442.8119504329 -93.44554083251)"/><path id="polygon1288" d="m1766.61 798.89v-263.46l-21.18-21.06-.67.67 20.89 20.78v262.68l-12.49 12.43v106.51h.95v-106.12z" transform="matrix(.26458333 0 0 .26458333 -442.8119504329 -93.44554083251)"/><path id="polygon1292" d="m1844.37 846.7-40.25-40.04v-232.96l22.34-22.23v-134.23h-.95v133.84l-22.35 22.23v233.75l40.26 40.04v198.94h.95z" transform="matrix(.26458333 0 0 .26458333 -442.8119504329 -93.44554083251)"/><path id="path1296" d="m1825.99 396.35c-5.92 0-10.74 4.79-10.74 10.68s4.82 10.68 10.74 10.68 10.74-4.79 10.74-10.68c-.01-5.89-4.82-10.68-10.74-10.68zm0 20.42c-5.4 0-9.79-4.37-9.79-9.73s4.39-9.73 9.79-9.73c5.39 0 9.78 4.37 9.78 9.73s-4.39 9.73-9.78 9.73z" transform="matrix(.26458333 0 0 .26458333 -442.8119504329 -93.44554083251)"/><path id="path1300" d="m1742.19 548.88c-5.92 0-10.74 4.79-10.74 10.68s4.82 10.68 10.74 10.68 10.74-4.79 10.74-10.68-4.82-10.68-10.74-10.68zm0 20.41c-5.4 0-9.78-4.37-9.78-9.73s4.39-9.73 9.78-9.73 9.78 4.37 9.78 9.73-4.39 9.73-9.78 9.73z" transform="matrix(.26458333 0 0 .26458333 -442.8119504329 -93.44554083251)"/><path id="path1304" d="m1740.67 505.06c-3.09 0-5.61 2.5-5.61 5.58s2.52 5.58 5.61 5.58 5.61-2.5 5.61-5.58-2.52-5.58-5.61-5.58zm0 10.2c-2.57 0-4.65-2.08-4.65-4.63s2.09-4.63 4.65-4.63c2.57 0 4.65 2.08 4.65 4.63 0 2.56-2.08 4.63-4.65 4.63z" transform="matrix(.26458333 0 0 .26458333 -442.8119504329 -93.44554083251)"/><path id="polygon1308" d="m1742.66 569.76h-.95v134.52l-46.52 46.27v221.33h.96v-220.94l46.51-46.26z" transform="matrix(.26458333 0 0 .26458333 -442.8119504329 -93.44554083251)"/><path id="rect1314" d="m15.20028817187 139.69469829279h.2513541635v9.47208294942h-.2513541635z" stroke-width=".26458333"/><g id="g1322" transform="matrix(.26458333 0 0 .26458333 -442.8119504329 -93.44554083251)"><path id="path1318" d="m1722.29 844.3c0-2.82-2.3-5.1-5.13-5.1s-5.13 2.28-5.13 5.1 2.3 5.1 5.13 5.1 5.13-2.28 5.13-5.1z"/><path id="path1320" d="m1717.16 838.72c-3.09 0-5.61 2.5-5.61 5.58 0 3.07 2.52 5.58 5.61 5.58s5.61-2.5 5.61-5.58c0-3.07-2.52-5.58-5.61-5.58zm0 10.21c-2.57 0-4.65-2.08-4.65-4.63s2.09-4.63 4.65-4.63c2.57 0 4.65 2.08 4.65 4.63s-2.08 4.63-4.65 4.63z"/></g><path id="path1324" d="m1731.3 420.86c-3.09 0-5.61 2.5-5.61 5.58s2.52 5.58 5.61 5.58 5.61-2.5 5.61-5.58c-.01-3.08-2.52-5.58-5.61-5.58zm0 10.2c-2.57 0-4.65-2.08-4.65-4.63s2.09-4.63 4.65-4.63c2.57 0 4.65 2.08 4.65 4.63 0 2.56-2.09 4.63-4.65 4.63z" transform="matrix(.26458333 0 0 .26458333 -442.8119504329 -93.44554083251)"/><path id="path1328" d="m1711.28 632.46c-3.09 0-5.61 2.5-5.61 5.58s2.52 5.58 5.61 5.58 5.61-2.5 5.61-5.58-2.52-5.58-5.61-5.58zm0 10.2c-2.57 0-4.65-2.08-4.65-4.63s2.09-4.63 4.65-4.63c2.57 0 4.65 2.08 4.65 4.63 0 2.56-2.08 4.63-4.65 4.63z" transform="matrix(.26458333 0 0 .26458333 -442.8119504329 -93.44554083251)"/><path id="polygon1332" d="m1731.77 431.54h-.95v46.75l-20.02 19.9v134.74h.96v-134.34l20.01-19.91z" transform="matrix(.26458333 0 0 .26458333 -442.8119504329 -93.44554083251)"/><path id="path1338" d="m1722.04 353.18c-3.09 0-5.61 2.5-5.61 5.58s2.52 5.58 5.61 5.58 5.61-2.5 5.61-5.58-2.52-5.58-5.61-5.58zm0 10.21c-2.57 0-4.65-2.08-4.65-4.63s2.09-4.63 4.65-4.63c2.57 0 4.65 2.08 4.65 4.63s-2.09 4.63-4.65 4.63z" transform="matrix(.26458333 0 0 .26458333 -442.8119504329 -93.44554083251)"/><path id="path1342" d="m1702.02 564.79c-3.09 0-5.61 2.5-5.61 5.58s2.52 5.58 5.61 5.58 5.61-2.5 5.61-5.58-2.52-5.58-5.61-5.58zm0 10.2c-2.57 0-4.65-2.08-4.65-4.63s2.09-4.63 4.65-4.63c2.57 0 4.65 2.08 4.65 4.63.01 2.56-2.08 4.63-4.65 4.63z" transform="matrix(.26458333 0 0 .26458333 -442.8119504329 -93.44554083251)"/><path id="polygon1346" d="m1722.51 363.86h-.95v46.75l-20.01 19.91v134.74h.95v-134.35l20.01-19.9z" transform="matrix(.26458333 0 0 .26458333 -442.8119504329 -93.44554083251)"/><path id="polygon1352" d="m1726.29 766.21 16.23-16.15-.67-.67-16.52 16.43v50.5l-8.65 8.6v14.28h.96v-13.88l8.65-8.61z" transform="matrix(.26458333 0 0 .26458333 -442.8119504329 -93.44554083251)"/><path id="rect1356" d="m1790.25 840.92999h23.35v5.18h-23.35z" transform="matrix(-.26458333 0 0 -.26458333 510.70562505428 352.91809916901)"/><path id="rect1360" d="m1790.25 852.03998h23.35v5.18h-23.35z" transform="matrix(-.26458333 0 0 -.26458333 510.70562505428 358.79489180331)"/><path id="rect1364" d="m1790.25 863.14001h23.35v5.18h-23.35z" transform="matrix(-.26458333 0 0 -.26458333 510.70562505428 364.6717638126)"/><path id="rect1368" d="m1790.25 874.25h23.35v5.18h-23.35z" transform="matrix(-.26458333 0 0 -.26458333 510.70562505428 370.54860936356)"/><path id="rect1372" d="m1790.25 885.34998h23.35v5.18h-23.35z" transform="matrix(-.26458333 0 0 -.26458333 510.70562505428 376.42548137286)"/>
</symbol>
<symbol id="lines_4" height="288.60748mm" viewBox="0 0 226.73734 288.60747" width="226.73734mm">
	<path id="polygon236" d="m1385.48 546.75h.95v-104.41l64.47-64.47v-296.19h-.95v295.8l-64.47 64.46z" transform="matrix(.26458333 0 0 .26458333 -190.7831045199 -17.65300015282)"/><path id="polygon240" d="m1374.43 418.72h.94v-48.73l-48.47-48.48v-231.66h-.95v232.06l48.48 48.47z" transform="matrix(.26458333 0 0 .26458333 -190.7831045199 -17.65300015282)"/><path id="rect244" d="m180.3373491379 2.09285297133h.2513541635v80.2692906554h-.2513541635z" stroke-width=".26458333"/><path id="rect248" d="m186.8196407229 2.60879178775h.2513541635v72.5540407526h-.2513541635z" stroke-width=".26458333"/><path id="polygon252" d="m1337 479.86h.95v-114.63l-34.53-34.53v-238.13h-.95v238.52l34.53 34.53z" transform="matrix(.26458333 0 0 .26458333 -190.7831045199 -17.65300015282)"/><path id="polygon256" d="m1263.53 468.17h.95v-39.62l22.44-22.44v-321.71h-.95v321.31l-22.44 22.45z" transform="matrix(.26458333 0 0 .26458333 -190.7831045199 -17.65300015282)"/><path id="polygon260" d="m1256.72 378.01h.95v-29.45l-12-11.99v-259.18h-.94v259.57l11.99 11.99z" transform="matrix(.26458333 0 0 .26458333 -190.7831045199 -17.65300015282)"/><path id="polygon264" d="m1177.45 386.74h.95v-18.62l29.26-29.26v-259.47h-.95v259.08l-29.26 29.25z" transform="matrix(.26458333 0 0 .26458333 -190.7831045199 -17.65300015282)"/><path id="rect268" d="m120.7505373886 2.51883239721h.2513541635v69.13298094153h-.2513541635z" stroke-width=".26458333"/><path id="rect272" d="m114.2708916369 1.25677070686h.2513541635v76.39314751673h-.2513541635z" stroke-width=".26458333"/><g transform="matrix(.26458333 0 0 .26458333 -190.7831045199 -17.65300015282)"><path id="path276" d="m1385.96 567.64c5.89 0 10.68-4.79 10.68-10.68s-4.79-10.68-10.68-10.68-10.68 4.79-10.68 10.68 4.79 10.68 10.68 10.68zm0-20.42c5.37 0 9.73 4.37 9.73 9.73 0 5.37-4.37 9.73-9.73 9.73-5.37 0-9.73-4.37-9.73-9.73s4.36-9.73 9.73-9.73z"/><g id="g284"><path id="path280" d="m1480.4 1083.26c0-5.64-4.57-10.21-10.21-10.21s-10.21 4.57-10.21 10.21 4.57 10.21 10.21 10.21 10.21-4.57 10.21-10.21z"/><path id="path282" d="m1470.19 1093.94c5.89 0 10.68-4.79 10.68-10.68s-4.79-10.68-10.68-10.68-10.68 4.79-10.68 10.68 4.79 10.68 10.68 10.68zm0-20.41c5.37 0 9.73 4.37 9.73 9.73 0 5.37-4.37 9.73-9.73 9.73s-9.73-4.37-9.73-9.73 4.37-9.73 9.73-9.73z"/></g><g id="g290"><path id="path286" d="m1577.56 789.27c0-5.64-4.57-10.21-10.21-10.21s-10.21 4.57-10.21 10.21 4.57 10.21 10.21 10.21 10.21-4.57 10.21-10.21z"/><path id="path288" d="m1567.35 799.95c5.89 0 10.68-4.79 10.68-10.68s-4.79-10.68-10.68-10.68-10.68 4.79-10.68 10.68 4.79 10.68 10.68 10.68zm0-20.41c5.37 0 9.73 4.37 9.73 9.73 0 5.37-4.37 9.73-9.73 9.73s-9.73-4.37-9.73-9.73 4.36-9.73 9.73-9.73z"/></g><g id="g296"><path id="path292" d="m1385.11 655.18c0-5.64-4.57-10.21-10.21-10.21s-10.21 4.57-10.21 10.21 4.57 10.21 10.21 10.21 10.21-4.57 10.21-10.21z"/><path id="path294" d="m1374.9 665.86c5.89 0 10.68-4.79 10.68-10.68s-4.79-10.68-10.68-10.68-10.68 4.79-10.68 10.68 4.79 10.68 10.68 10.68zm0-20.41c5.37 0 9.73 4.37 9.73 9.73 0 5.37-4.37 9.73-9.73 9.73s-9.73-4.37-9.73-9.73c0-5.37 4.36-9.73 9.73-9.73z"/></g><g id="g302"><path id="path298" d="m1048.76 422.13c0-5.64-4.57-10.21-10.21-10.21s-10.21 4.57-10.21 10.21 4.57 10.21 10.21 10.21c5.64-.01 10.21-4.58 10.21-10.21z"/><path id="path300" d="m1038.55 432.8c5.89 0 10.68-4.79 10.68-10.68s-4.79-10.68-10.68-10.68-10.68 4.79-10.68 10.68 4.79 10.68 10.68 10.68zm0-20.41c5.37 0 9.73 4.37 9.73 9.73s-4.37 9.73-9.73 9.73-9.73-4.37-9.73-9.73 4.37-9.73 9.73-9.73z"/></g><path id="path304" d="m1358.46 468.64c5.89 0 10.68-4.79 10.68-10.68s-4.79-10.68-10.68-10.68-10.68 4.79-10.68 10.68 4.79 10.68 10.68 10.68zm0-20.41c5.37 0 9.73 4.37 9.73 9.73 0 5.37-4.37 9.73-9.73 9.73s-9.73-4.37-9.73-9.73c0-5.37 4.37-9.73 9.73-9.73z"/><path id="path308" d="m1257.19 398.9c5.89 0 10.68-4.79 10.68-10.68s-4.79-10.68-10.68-10.68-10.68 4.79-10.68 10.68 4.79 10.68 10.68 10.68zm0-20.41c5.37 0 9.73 4.37 9.73 9.73s-4.37 9.73-9.73 9.73c-5.37 0-9.73-4.37-9.73-9.73s4.37-9.73 9.73-9.73z"/><path id="path312" d="m1177.93 407.63c5.89 0 10.68-4.79 10.68-10.68s-4.79-10.68-10.68-10.68-10.68 4.79-10.68 10.68 4.79 10.68 10.68 10.68zm0-20.41c5.37 0 9.73 4.37 9.73 9.73s-4.37 9.73-9.73 9.73-9.73-4.37-9.73-9.73 4.36-9.73 9.73-9.73z"/><path id="path316" d="m856.2 328.56c5.89 0 10.68-4.79 10.68-10.68s-4.79-10.68-10.68-10.68-10.68 4.79-10.68 10.68 4.79 10.68 10.68 10.68zm0-20.41c5.37 0 9.73 4.37 9.73 9.73s-4.37 9.73-9.73 9.73c-5.37 0-9.73-4.37-9.73-9.73s4.36-9.73 9.73-9.73z"/><path id="path320" d="m1426.49 838.7c5.89 0 10.68-4.79 10.68-10.68s-4.79-10.68-10.68-10.68-10.68 4.79-10.68 10.68 4.79 10.68 10.68 10.68zm0-20.41c5.37 0 9.73 4.37 9.73 9.73s-4.37 9.73-9.73 9.73c-5.37 0-9.73-4.37-9.73-9.73s4.36-9.73 9.73-9.73z"/><path id="path324" d="m1426.49 795.11c5.89 0 10.68-4.79 10.68-10.68s-4.79-10.68-10.68-10.68-10.68 4.79-10.68 10.68 4.79 10.68 10.68 10.68zm0-20.42c5.37 0 9.73 4.37 9.73 9.73s-4.37 9.73-9.73 9.73c-5.37 0-9.73-4.37-9.73-9.73s4.36-9.73 9.73-9.73z"/><path id="path328" d="m1364.69 961.83c5.89 0 10.68-4.79 10.68-10.68s-4.79-10.68-10.68-10.68-10.68 4.79-10.68 10.68 4.8 10.68 10.68 10.68zm0-20.41c5.37 0 9.73 4.37 9.73 9.73s-4.37 9.73-9.73 9.73-9.73-4.37-9.73-9.73 4.37-9.73 9.73-9.73z"/><path id="path332" d="m1567.35 878.25c5.89 0 10.68-4.79 10.68-10.68s-4.79-10.68-10.68-10.68-10.68 4.79-10.68 10.68 4.79 10.68 10.68 10.68zm0-20.41c5.37 0 9.73 4.37 9.73 9.73 0 5.37-4.37 9.73-9.73 9.73s-9.73-4.37-9.73-9.73c0-5.37 4.36-9.73 9.73-9.73z"/><path id="path336" d="m1220.53 379.58c5.89 0 10.68-4.79 10.68-10.68s-4.79-10.68-10.68-10.68-10.68 4.79-10.68 10.68 4.79 10.68 10.68 10.68zm0-20.41c5.37 0 9.73 4.37 9.73 9.73 0 5.37-4.37 9.73-9.73 9.73s-9.73-4.37-9.73-9.73c-.01-5.36 4.36-9.73 9.73-9.73z"/><g id="g344"><path id="path340" d="m1230.73 410c0-5.64-4.57-10.21-10.21-10.21s-10.21 4.57-10.21 10.21 4.57 10.21 10.21 10.21c5.64-.01 10.21-4.58 10.21-10.21z"/><path id="path342" d="m1220.53 420.68c5.89 0 10.68-4.79 10.68-10.68s-4.79-10.68-10.68-10.68-10.68 4.79-10.68 10.68 4.79 10.68 10.68 10.68zm0-20.41c5.37 0 9.73 4.37 9.73 9.73s-4.37 9.73-9.73 9.73-9.73-4.37-9.73-9.73 4.36-9.73 9.73-9.73z"/></g><path id="path346" d="m1132.78 355.05c5.89 0 10.68-4.79 10.68-10.68s-4.79-10.68-10.68-10.68-10.68 4.79-10.68 10.68c0 5.88 4.79 10.68 10.68 10.68zm0-20.42c5.37 0 9.73 4.37 9.73 9.73s-4.37 9.73-9.73 9.73-9.73-4.37-9.73-9.73 4.36-9.73 9.73-9.73z"/><path id="path350" d="m949.43 395.68c5.89 0 10.68-4.79 10.68-10.68s-4.79-10.68-10.68-10.68-10.68 4.79-10.68 10.68 4.79 10.68 10.68 10.68zm0-20.41c5.37 0 9.73 4.37 9.73 9.73s-4.37 9.73-9.73 9.73-9.73-4.37-9.73-9.73 4.36-9.73 9.73-9.73z"/><path id="path354" d="m1309.66 436.68c5.89 0 10.68-4.79 10.68-10.68s-4.79-10.68-10.68-10.68-10.68 4.79-10.68 10.68c0 5.88 4.79 10.68 10.68 10.68zm0-20.42c5.37 0 9.73 4.37 9.73 9.73s-4.37 9.73-9.73 9.73c-5.37 0-9.73-4.37-9.73-9.73s4.36-9.73 9.73-9.73z"/><path id="path358" d="m1520.42 650.44c5.89 0 10.68-4.79 10.68-10.68s-4.79-10.68-10.68-10.68-10.68 4.79-10.68 10.68 4.79 10.68 10.68 10.68zm0-20.41c5.37 0 9.73 4.37 9.73 9.73s-4.37 9.73-9.73 9.73-9.73-4.37-9.73-9.73 4.36-9.73 9.73-9.73z"/><path id="path362" d="m1264 489.05c5.89 0 10.68-4.79 10.68-10.68s-4.79-10.68-10.68-10.68-10.68 4.79-10.68 10.68 4.8 10.68 10.68 10.68zm0-20.41c5.37 0 9.73 4.37 9.73 9.73s-4.37 9.73-9.73 9.73-9.73-4.37-9.73-9.73 4.37-9.73 9.73-9.73z"/><path id="path366" d="m1403.14 398.9c5.89 0 10.68-4.79 10.68-10.68s-4.79-10.68-10.68-10.68-10.68 4.79-10.68 10.68 4.79 10.68 10.68 10.68zm0-20.41c5.37 0 9.73 4.37 9.73 9.73s-4.37 9.73-9.73 9.73-9.73-4.37-9.73-9.73 4.36-9.73 9.73-9.73z"/><path id="path370" d="m1423.29 513.89c3.08 0 5.58-2.5 5.58-5.58s-2.5-5.58-5.58-5.58-5.58 2.5-5.58 5.58c.01 3.07 2.51 5.58 5.58 5.58zm0-10.21c2.55 0 4.63 2.08 4.63 4.63s-2.08 4.63-4.63 4.63-4.63-2.08-4.63-4.63 2.08-4.63 4.63-4.63z"/><path id="path374" d="m1470.19 1124.56c3.08 0 5.58-2.5 5.58-5.58s-2.5-5.58-5.58-5.58-5.58 2.5-5.58 5.58 2.51 5.58 5.58 5.58zm0-10.21c2.55 0 4.63 2.08 4.63 4.63s-2.08 4.63-4.63 4.63-4.63-2.08-4.63-4.63 2.08-4.63 4.63-4.63z"/><path id="path378" d="m1544.94 818.29c3.08 0 5.58-2.5 5.58-5.58 0-3.07-2.5-5.58-5.58-5.58s-5.58 2.5-5.58 5.58c0 3.07 2.5 5.58 5.58 5.58zm0-10.21c2.55 0 4.63 2.08 4.63 4.63s-2.08 4.63-4.63 4.63-4.63-2.08-4.63-4.63 2.07-4.63 4.63-4.63z"/><path id="path382" d="m1374.9 686.61c3.08 0 5.58-2.5 5.58-5.58s-2.5-5.58-5.58-5.58-5.58 2.5-5.58 5.58 2.51 5.58 5.58 5.58zm0-10.2c2.55 0 4.63 2.08 4.63 4.63s-2.08 4.63-4.63 4.63-4.63-2.08-4.63-4.63c0-2.56 2.08-4.63 4.63-4.63z"/><path id="path386" d="m1374.9 740.36c3.08 0 5.58-2.5 5.58-5.58s-2.5-5.58-5.58-5.58-5.58 2.5-5.58 5.58 2.51 5.58 5.58 5.58zm0-10.2c2.55 0 4.63 2.08 4.63 4.63s-2.08 4.63-4.63 4.63-4.63-2.08-4.63-4.63c0-2.56 2.08-4.63 4.63-4.63z"/><path id="path390" d="m1177.93 544.41c3.08 0 5.58-2.5 5.58-5.58s-2.5-5.58-5.58-5.58-5.58 2.5-5.58 5.58 2.5 5.58 5.58 5.58zm0-10.21c2.55 0 4.63 2.08 4.63 4.63s-2.08 4.63-4.63 4.63-4.63-2.08-4.63-4.63 2.07-4.63 4.63-4.63z"/><path id="path394" d="m795.79 369.49c3.08 0 5.58-2.5 5.58-5.58s-2.5-5.58-5.58-5.58-5.58 2.5-5.58 5.58c.01 3.08 2.51 5.58 5.58 5.58zm0-10.21c2.55 0 4.63 2.08 4.63 4.63s-2.08 4.63-4.63 4.63-4.63-2.08-4.63-4.63 2.08-4.63 4.63-4.63z"/><path id="path398" d="m1215.42 714.01c3.08 0 5.58-2.5 5.58-5.58s-2.5-5.58-5.58-5.58-5.58 2.5-5.58 5.58 2.51 5.58 5.58 5.58zm0-10.2c2.55 0 4.63 2.08 4.63 4.63s-2.08 4.63-4.63 4.63-4.63-2.08-4.63-4.63c0-2.56 2.08-4.63 4.63-4.63z"/><path id="path402" d="m1506.95 769.58c3.08 0 5.58-2.5 5.58-5.58s-2.5-5.58-5.58-5.58-5.58 2.5-5.58 5.58 2.5 5.58 5.58 5.58zm0-10.21c2.55 0 4.63 2.08 4.63 4.63s-2.08 4.63-4.63 4.63-4.63-2.08-4.63-4.63 2.07-4.63 4.63-4.63z"/><path id="path406" d="m1498.32 594.23c3.08 0 5.58-2.5 5.58-5.58 0-3.07-2.5-5.58-5.58-5.58s-5.58 2.5-5.58 5.58c0 3.07 2.51 5.58 5.58 5.58zm0-10.21c2.55 0 4.63 2.08 4.63 4.63s-2.08 4.63-4.63 4.63-4.63-2.08-4.63-4.63 2.08-4.63 4.63-4.63z"/><path id="path410" d="m1483.92 594.23c3.08 0 5.58-2.5 5.58-5.58 0-3.07-2.5-5.58-5.58-5.58-3.07 0-5.58 2.5-5.58 5.58.01 3.07 2.51 5.58 5.58 5.58zm0-10.21c2.55 0 4.63 2.08 4.63 4.63s-2.08 4.63-4.63 4.63-4.63-2.08-4.63-4.63 2.08-4.63 4.63-4.63z"/><g id="g418"><path id="path414" d="m1525.52 588.65c0-2.82-2.28-5.1-5.1-5.1s-5.1 2.28-5.1 5.1 2.28 5.1 5.1 5.1 5.1-2.28 5.1-5.1z"/><path id="path416" d="m1520.42 594.23c3.08 0 5.58-2.5 5.58-5.58 0-3.07-2.5-5.58-5.58-5.58s-5.58 2.5-5.58 5.58c0 3.07 2.5 5.58 5.58 5.58zm0-10.21c2.55 0 4.63 2.08 4.63 4.63s-2.08 4.63-4.63 4.63-4.63-2.08-4.63-4.63 2.08-4.63 4.63-4.63z"/></g><g id="g424"><path id="path420" d="m1342.58 484.96c0-2.82-2.28-5.1-5.1-5.1s-5.1 2.28-5.1 5.1 2.28 5.1 5.1 5.1 5.1-2.28 5.1-5.1z"/><path id="path422" d="m1337.48 490.54c3.08 0 5.58-2.5 5.58-5.58s-2.5-5.58-5.58-5.58-5.58 2.5-5.58 5.58 2.5 5.58 5.58 5.58zm0-10.21c2.55 0 4.63 2.08 4.63 4.63s-2.08 4.63-4.63 4.63-4.63-2.08-4.63-4.63 2.08-4.63 4.63-4.63z"/></g><path id="path426" d="m1153.43 370.89c3.08 0 5.58-2.5 5.58-5.58s-2.5-5.58-5.58-5.58-5.58 2.5-5.58 5.58 2.51 5.58 5.58 5.58zm0-10.21c2.55 0 4.63 2.08 4.63 4.63s-2.08 4.63-4.63 4.63-4.63-2.08-4.63-4.63 2.08-4.63 4.63-4.63z"/><path id="path430" d="m1081.52 355.05c3.08 0 5.58-2.5 5.58-5.58s-2.5-5.58-5.58-5.58-5.58 2.5-5.58 5.58c.01 3.07 2.51 5.58 5.58 5.58zm0-10.21c2.55 0 4.63 2.08 4.63 4.63s-2.08 4.63-4.63 4.63-4.63-2.08-4.63-4.63 2.08-4.63 4.63-4.63z"/><path id="path434" d="m1014.53 339.74c3.08 0 5.58-2.5 5.58-5.58s-2.5-5.58-5.58-5.58-5.58 2.5-5.58 5.58 2.5 5.58 5.58 5.58zm0-10.21c2.55 0 4.63 2.08 4.63 4.63s-2.08 4.63-4.63 4.63-4.63-2.08-4.63-4.63 2.07-4.63 4.63-4.63z"/><path id="path438" d="m877.92 287.22c3.08 0 5.58-2.5 5.58-5.58s-2.5-5.58-5.58-5.58-5.58 2.5-5.58 5.58 2.51 5.58 5.58 5.58zm0-10.21c2.55 0 4.63 2.08 4.63 4.63s-2.08 4.63-4.63 4.63-4.63-2.08-4.63-4.63 2.08-4.63 4.63-4.63z"/><path id="path442" d="m820.88 292.32c3.08 0 5.58-2.5 5.58-5.58s-2.5-5.58-5.58-5.58-5.58 2.5-5.58 5.58 2.51 5.58 5.58 5.58zm0-10.2c2.55 0 4.63 2.08 4.63 4.63s-2.08 4.63-4.63 4.63-4.63-2.08-4.63-4.63 2.08-4.63 4.63-4.63z"/><path id="path446" d="m747.8 275.77c3.08 0 5.58-2.5 5.58-5.58s-2.5-5.58-5.58-5.58-5.58 2.5-5.58 5.58 2.5 5.58 5.58 5.58zm0-10.21c2.55 0 4.63 2.08 4.63 4.63s-2.08 4.63-4.63 4.63-4.63-2.08-4.63-4.63 2.07-4.63 4.63-4.63z"/><path id="path450" d="m747.8 292.32c3.08 0 5.58-2.5 5.58-5.58s-2.5-5.58-5.58-5.58-5.58 2.5-5.58 5.58 2.5 5.58 5.58 5.58zm0-10.2c2.55 0 4.63 2.08 4.63 4.63s-2.08 4.63-4.63 4.63-4.63-2.08-4.63-4.63 2.07-4.63 4.63-4.63z"/><path id="path454" d="m726.65 256.99c3.07 0 5.58-2.5 5.58-5.58s-2.5-5.58-5.58-5.58-5.58 2.5-5.58 5.58 2.5 5.58 5.58 5.58zm0-10.2c2.55 0 4.63 2.08 4.63 4.63s-2.08 4.63-4.63 4.63-4.63-2.08-4.63-4.63 2.08-4.63 4.63-4.63z"/><path id="path458" d="m1045.98 305.94c3.08 0 5.58-2.5 5.58-5.58s-2.5-5.58-5.58-5.58-5.58 2.5-5.58 5.58c0 3.07 2.5 5.58 5.58 5.58zm0-10.21c2.55 0 4.63 2.08 4.63 4.63s-2.08 4.63-4.63 4.63-4.63-2.08-4.63-4.63 2.07-4.63 4.63-4.63z"/><path id="path462" d="m1061.68 398.9c3.08 0 5.58-2.5 5.58-5.58s-2.5-5.58-5.58-5.58-5.58 2.5-5.58 5.58 2.51 5.58 5.58 5.58zm0-10.21c2.55 0 4.63 2.08 4.63 4.63s-2.08 4.63-4.63 4.63-4.63-2.08-4.63-4.63 2.08-4.63 4.63-4.63z"/><path id="path466" d="m927.8 352.54c3.08 0 5.58-2.5 5.58-5.58 0-3.07-2.5-5.58-5.58-5.58s-5.58 2.5-5.58 5.58 2.5 5.58 5.58 5.58zm0-10.21c2.55 0 4.63 2.08 4.63 4.63s-2.08 4.63-4.63 4.63-4.63-2.08-4.63-4.63 2.07-4.63 4.63-4.63z"/><path id="path470" d="m1099.56 314.32c3.07 0 5.58-2.5 5.58-5.58s-2.5-5.58-5.58-5.58-5.58 2.5-5.58 5.58 2.5 5.58 5.58 5.58zm0-10.2c2.55 0 4.63 2.08 4.63 4.63s-2.08 4.63-4.63 4.63-4.63-2.08-4.63-4.63 2.08-4.63 4.63-4.63z"/><g id="g478"><path id="path474" d="m950.9 305.46c0-2.82-2.28-5.1-5.1-5.1s-5.1 2.28-5.1 5.1 2.28 5.1 5.1 5.1c2.81 0 5.1-2.28 5.1-5.1z"/><path id="path476" d="m945.79 311.04c3.08 0 5.58-2.5 5.58-5.58 0-3.07-2.5-5.58-5.58-5.58s-5.58 2.5-5.58 5.58c.01 3.08 2.51 5.58 5.58 5.58zm0-10.21c2.55 0 4.63 2.08 4.63 4.63s-2.08 4.63-4.63 4.63-4.63-2.08-4.63-4.63 2.08-4.63 4.63-4.63z"/></g><g id="g484"><path id="path480" d="m768.83 312.78c0-2.82-2.28-5.1-5.1-5.1s-5.1 2.28-5.1 5.1 2.28 5.1 5.1 5.1 5.1-2.29 5.1-5.1z"/><path id="path482" d="m763.73 318.35c3.08 0 5.58-2.5 5.58-5.58s-2.5-5.58-5.58-5.58-5.58 2.5-5.58 5.58 2.5 5.58 5.58 5.58zm0-10.2c2.55 0 4.63 2.08 4.63 4.63s-2.08 4.63-4.63 4.63-4.63-2.08-4.63-4.63 2.08-4.63 4.63-4.63z"/></g><g id="g490"><path id="path486" d="m814.1 249.36c0-2.82-2.28-5.1-5.1-5.1s-5.1 2.28-5.1 5.1 2.28 5.1 5.1 5.1c2.81.01 5.1-2.28 5.1-5.1z"/><path id="path488" d="m808.99 254.94c3.08 0 5.58-2.5 5.58-5.58s-2.5-5.58-5.58-5.58-5.58 2.5-5.58 5.58 2.51 5.58 5.58 5.58zm0-10.21c2.55 0 4.63 2.08 4.63 4.63s-2.08 4.63-4.63 4.63-4.63-2.08-4.63-4.63 2.08-4.63 4.63-4.63z"/></g><path id="path492" d="m945.79 294.99c3.08 0 5.58-2.5 5.58-5.58 0-3.07-2.5-5.58-5.58-5.58s-5.58 2.5-5.58 5.58c.01 3.07 2.51 5.58 5.58 5.58zm0-10.21c2.55 0 4.63 2.08 4.63 4.63s-2.08 4.63-4.63 4.63-4.63-2.08-4.63-4.63 2.08-4.63 4.63-4.63z"/><path id="path496" d="m945.79 278.93c3.08 0 5.58-2.5 5.58-5.58s-2.5-5.58-5.58-5.58-5.58 2.5-5.58 5.58 2.51 5.58 5.58 5.58zm0-10.2c2.55 0 4.63 2.08 4.63 4.63s-2.08 4.63-4.63 4.63-4.63-2.08-4.63-4.63 2.08-4.63 4.63-4.63z"/><g id="g504"><path id="path500" d="m1042.63 229.75c0 2.82 2.28 5.1 5.1 5.1s5.1-2.28 5.1-5.1-2.28-5.1-5.1-5.1-5.1 2.29-5.1 5.1z"/><path id="path502" d="m1047.74 235.33c3.08 0 5.58-2.5 5.58-5.58s-2.5-5.58-5.58-5.58-5.58 2.5-5.58 5.58 2.5 5.58 5.58 5.58zm0-10.21c2.55 0 4.63 2.08 4.63 4.63s-2.08 4.63-4.63 4.63-4.63-2.08-4.63-4.63 2.07-4.63 4.63-4.63z"/></g><path id="path506" d="m1047.74 251.38c3.08 0 5.58-2.5 5.58-5.58s-2.5-5.58-5.58-5.58-5.58 2.5-5.58 5.58 2.5 5.58 5.58 5.58zm0-10.2c2.55 0 4.63 2.08 4.63 4.63s-2.08 4.63-4.63 4.63-4.63-2.08-4.63-4.63c0-2.56 2.07-4.63 4.63-4.63z"/><path id="path510" d="m1047.74 267.44c3.08 0 5.58-2.5 5.58-5.58s-2.5-5.58-5.58-5.58-5.58 2.5-5.58 5.58c0 3.07 2.5 5.58 5.58 5.58zm0-10.21c2.55 0 4.63 2.08 4.63 4.63s-2.08 4.63-4.63 4.63-4.63-2.08-4.63-4.63 2.07-4.63 4.63-4.63z"/><path id="path514" d="m1220.53 446.88c3.08 0 5.58-2.5 5.58-5.58s-2.5-5.58-5.58-5.58-5.58 2.5-5.58 5.58 2.5 5.58 5.58 5.58zm0-10.2c2.55 0 4.63 2.08 4.63 4.63s-2.08 4.63-4.63 4.63-4.63-2.08-4.63-4.63 2.07-4.63 4.63-4.63z"/><path id="path518" d="m1219.24 330.63c3.08 0 5.58-2.5 5.58-5.58s-2.5-5.58-5.58-5.58-5.58 2.5-5.58 5.58 2.5 5.58 5.58 5.58zm0-10.21c2.55 0 4.63 2.08 4.63 4.63s-2.08 4.63-4.63 4.63-4.63-2.08-4.63-4.63 2.08-4.63 4.63-4.63z"/><path id="path522" d="m1219.24 307.67c3.08 0 5.58-2.5 5.58-5.58s-2.5-5.58-5.58-5.58-5.58 2.5-5.58 5.58 2.5 5.58 5.58 5.58zm0-10.21c2.55 0 4.63 2.08 4.63 4.63s-2.08 4.63-4.63 4.63-4.63-2.08-4.63-4.63 2.08-4.63 4.63-4.63z"/><g id="g530"><path id="path526" d="m1224.34 263.66c0-2.82-2.28-5.1-5.1-5.1s-5.1 2.28-5.1 5.1 2.28 5.1 5.1 5.1 5.1-2.28 5.1-5.1z"/><path id="path528" d="m1219.24 269.24c3.08 0 5.58-2.5 5.58-5.58s-2.5-5.58-5.58-5.58-5.58 2.5-5.58 5.58c0 3.07 2.5 5.58 5.58 5.58zm0-10.21c2.55 0 4.63 2.08 4.63 4.63s-2.08 4.63-4.63 4.63-4.63-2.08-4.63-4.63 2.08-4.63 4.63-4.63z"/></g><g id="g536"><path id="path532" d="m1275.23 307.19c0-2.82-2.28-5.1-5.1-5.1s-5.1 2.28-5.1 5.1 2.28 5.1 5.1 5.1c2.81.01 5.1-2.28 5.1-5.1z"/><path id="path534" d="m1270.12 312.77c3.08 0 5.58-2.5 5.58-5.58s-2.5-5.58-5.58-5.58c-3.07 0-5.58 2.5-5.58 5.58.01 3.08 2.51 5.58 5.58 5.58zm0-10.2c2.55 0 4.63 2.08 4.63 4.63s-2.08 4.63-4.63 4.63-4.63-2.08-4.63-4.63c0-2.56 2.08-4.63 4.63-4.63z"/></g><path id="path538" d="m1270.12 246.28c3.08 0 5.58-2.5 5.58-5.58s-2.5-5.58-5.58-5.58c-3.07 0-5.58 2.5-5.58 5.58s2.51 5.58 5.58 5.58zm0-10.21c2.55 0 4.63 2.08 4.63 4.63s-2.08 4.63-4.63 4.63-4.63-2.08-4.63-4.63 2.08-4.63 4.63-4.63z"/><path id="path542" d="m1319.36 534.77c3.08 0 5.58-2.5 5.58-5.58s-2.5-5.58-5.58-5.58-5.58 2.5-5.58 5.58 2.5 5.58 5.58 5.58zm0-10.21c2.55 0 4.63 2.08 4.63 4.63s-2.08 4.63-4.63 4.63-4.63-2.08-4.63-4.63 2.08-4.63 4.63-4.63z"/><path id="path546" d="m1306.57 567.64c3.07 0 5.58-2.5 5.58-5.58s-2.5-5.58-5.58-5.58-5.58 2.5-5.58 5.58c0 3.07 2.51 5.58 5.58 5.58zm0-10.21c2.55 0 4.63 2.08 4.63 4.63s-2.08 4.63-4.63 4.63-4.63-2.08-4.63-4.63 2.08-4.63 4.63-4.63z"/><path id="path550" d="m1274.56 719.12c3.08 0 5.58-2.5 5.58-5.58s-2.5-5.58-5.58-5.58-5.58 2.5-5.58 5.58c0 3.07 2.5 5.58 5.58 5.58zm0-10.21c2.55 0 4.63 2.08 4.63 4.63s-2.08 4.63-4.63 4.63-4.63-2.08-4.63-4.63 2.07-4.63 4.63-4.63z"/><path id="path554" d="m1122.57 480.33c3.08 0 5.58-2.5 5.58-5.58s-2.5-5.58-5.58-5.58-5.58 2.5-5.58 5.58 2.51 5.58 5.58 5.58zm0-10.2c2.55 0 4.63 2.08 4.63 4.63s-2.08 4.63-4.63 4.63-4.63-2.08-4.63-4.63 2.08-4.63 4.63-4.63z"/><path id="path558" d="m1104.66 352.54c3.08 0 5.58-2.5 5.58-5.58 0-3.07-2.5-5.58-5.58-5.58-3.07 0-5.58 2.5-5.58 5.58s2.51 5.58 5.58 5.58zm0-10.21c2.55 0 4.63 2.08 4.63 4.63s-2.08 4.63-4.63 4.63-4.63-2.08-4.63-4.63 2.08-4.63 4.63-4.63z"/><path id="path562" d="m1427.63 361.48c3.08 0 5.58-2.5 5.58-5.58s-2.5-5.58-5.58-5.58-5.58 2.5-5.58 5.58 2.51 5.58 5.58 5.58zm0-10.21c2.55 0 4.63 2.08 4.63 4.63s-2.08 4.63-4.63 4.63-4.63-2.08-4.63-4.63 2.08-4.63 4.63-4.63z"/><path id="path566" d="m1374.9 429.4c3.08 0 5.58-2.5 5.58-5.58s-2.5-5.58-5.58-5.58-5.58 2.5-5.58 5.58 2.51 5.58 5.58 5.58zm0-10.2c2.55 0 4.63 2.08 4.63 4.63s-2.08 4.63-4.63 4.63-4.63-2.08-4.63-4.63 2.08-4.63 4.63-4.63z"/><path id="path570" d="m1358.46 396.97c3.08 0 5.58-2.5 5.58-5.58s-2.5-5.58-5.58-5.58-5.58 2.5-5.58 5.58 2.51 5.58 5.58 5.58zm0-10.21c2.55 0 4.63 2.08 4.63 4.63s-2.08 4.63-4.63 4.63-4.63-2.08-4.63-4.63 2.08-4.63 4.63-4.63z"/><g id="g578"><path id="path574" d="m1428.4 483.98c0-2.82-2.28-5.1-5.1-5.1s-5.1 2.28-5.1 5.1 2.28 5.1 5.1 5.1c2.81.01 5.1-2.28 5.1-5.1z"/><path id="path576" d="m1423.29 489.56c3.08 0 5.58-2.5 5.58-5.58s-2.5-5.58-5.58-5.58-5.58 2.5-5.58 5.58c.01 3.08 2.51 5.58 5.58 5.58zm0-10.2c2.55 0 4.63 2.08 4.63 4.63s-2.08 4.63-4.63 4.63-4.63-2.08-4.63-4.63 2.08-4.63 4.63-4.63z"/></g><path id="path580" d="m1423.29 465.24c3.08 0 5.58-2.5 5.58-5.58s-2.5-5.58-5.58-5.58-5.58 2.5-5.58 5.58c.01 3.08 2.51 5.58 5.58 5.58zm0-10.21c2.55 0 4.63 2.08 4.63 4.63s-2.08 4.63-4.63 4.63-4.63-2.08-4.63-4.63 2.08-4.63 4.63-4.63z"/><path id="path584" d="m1408.68 465.24c3.08 0 5.58-2.5 5.58-5.58s-2.5-5.58-5.58-5.58c-3.07 0-5.58 2.5-5.58 5.58s2.5 5.58 5.58 5.58zm0-10.21c2.55 0 4.63 2.08 4.63 4.63s-2.08 4.63-4.63 4.63-4.63-2.08-4.63-4.63 2.07-4.63 4.63-4.63z"/></g><path id="rect588" d="m168.5184117868 87.25429019218h.2513541635v13.56254096663h-.2513541635z" stroke-width=".26458333"/><path id="rect592" d="m204.4117863346 4.70958210503h.2513541635v117.8295401822h-.2513541635z" stroke-width=".26458333"/><path id="path596" d="m1494.13 550.74c5.89 0 10.68-4.79 10.68-10.68s-4.79-10.68-10.68-10.68-10.68 4.79-10.68 10.68 4.79 10.68 10.68 10.68zm0-20.41c5.37 0 9.73 4.37 9.73 9.73s-4.37 9.73-9.73 9.73-9.73-4.37-9.73-9.73 4.36-9.73 9.73-9.73z" transform="matrix(.26458333 0 0 .26458333 -190.7831045199 -17.65300015282)"/><path id="polygon600" d="m1510.43 462.87v-376.43h-.94v376.82l21.06 21.06.67-.67z" transform="matrix(.26458333 0 0 .26458333 -190.7831045199 -17.65300015282)"/><path id="polygon604" d="m1449.95 581.45h.95v-133.84l22.22-22.23v-347.1h-.94v346.71l-22.23 22.23z" transform="matrix(.26458333 0 0 .26458333 -190.7831045199 -17.65300015282)"/><path id="path608" d="m1450.42 602.34c5.89 0 10.68-4.79 10.68-10.68s-4.79-10.68-10.68-10.68-10.68 4.79-10.68 10.68 4.8 10.68 10.68 10.68zm0-20.42c5.37 0 9.73 4.37 9.73 9.73s-4.37 9.73-9.73 9.73-9.73-4.37-9.73-9.73 4.37-9.73 9.73-9.73z" transform="matrix(.26458333 0 0 .26458333 -190.7831045199 -17.65300015282)"/><path id="path612" d="m1533.77 449.81c5.89 0 10.68-4.79 10.68-10.68s-4.79-10.68-10.68-10.68-10.68 4.79-10.68 10.68 4.79 10.68 10.68 10.68zm0-20.41c5.37 0 9.73 4.37 9.73 9.73s-4.37 9.73-9.73 9.73-9.73-4.37-9.73-9.73 4.37-9.73 9.73-9.73z" transform="matrix(.26458333 0 0 .26458333 -190.7831045199 -17.65300015282)"/><path id="path616" d="m1535.28 493.63c3.08 0 5.58-2.5 5.58-5.58s-2.5-5.58-5.58-5.58-5.58 2.5-5.58 5.58c.01 3.08 2.51 5.58 5.58 5.58zm0-10.2c2.55 0 4.63 2.08 4.63 4.63s-2.08 4.63-4.63 4.63-4.63-2.08-4.63-4.63 2.08-4.63 4.63-4.63z" transform="matrix(.26458333 0 0 .26458333 -190.7831045199 -17.65300015282)"/><path id="rect620" d="m214.9025153691 3.86820685105h.2513541635v91.9665196747h-.2513541635z" stroke-width=".26458333"/><path id="polygon626" d="m1469.72 1041.87h.95v-339.32l14.15-14.15v-94.65h-.95v94.26l-14.15 14.15z" transform="matrix(.26458333 0 0 .26458333 -190.7831045199 -17.65300015282)"/><path id="path630" d="m1470.19 1062.76c5.89 0 10.68-4.79 10.68-10.68s-4.79-10.68-10.68-10.68-10.68 4.79-10.68 10.68 4.79 10.68 10.68 10.68zm0-20.41c5.37 0 9.73 4.37 9.73 9.73s-4.37 9.73-9.73 9.73-9.73-4.37-9.73-9.73 4.37-9.73 9.73-9.73z" transform="matrix(.26458333 0 0 .26458333 -190.7831045199 -17.65300015282)"/><path id="polygon634" d="m1485.55 711.82v263.46l21.06 21.06.67-.67-20.78-20.79v-262.67l12.43-12.43v-106.52h-.95v106.13z" transform="matrix(.26458333 0 0 .26458333 -190.7831045199 -17.65300015282)"/><path id="polygon638" d="m1408.2 664 40.04 40.04v232.97l-22.22 22.22v134.24h.94v-133.84l22.23-22.23v-233.75l-40.04-40.04v-198.94h-.95z" transform="matrix(.26458333 0 0 .26458333 -190.7831045199 -17.65300015282)"/><path id="path642" d="m1426.49 1114.35c5.89 0 10.68-4.79 10.68-10.68s-4.79-10.68-10.68-10.68-10.68 4.79-10.68 10.68 4.79 10.68 10.68 10.68zm0-20.41c5.37 0 9.73 4.37 9.73 9.73s-4.37 9.73-9.73 9.73c-5.37 0-9.73-4.37-9.73-9.73s4.36-9.73 9.73-9.73z" transform="matrix(.26458333 0 0 .26458333 -190.7831045199 -17.65300015282)"/><path id="path646" d="m1509.84 961.83c5.89 0 10.68-4.79 10.68-10.68s-4.79-10.68-10.68-10.68-10.68 4.79-10.68 10.68 4.79 10.68 10.68 10.68zm0-20.41c5.37 0 9.73 4.37 9.73 9.73s-4.37 9.73-9.73 9.73c-5.37 0-9.73-4.37-9.73-9.73s4.36-9.73 9.73-9.73z" transform="matrix(.26458333 0 0 .26458333 -190.7831045199 -17.65300015282)"/><path id="path650" d="m1511.35 1005.65c3.08 0 5.58-2.5 5.58-5.58s-2.5-5.58-5.58-5.58c-3.07 0-5.58 2.5-5.58 5.58s2.5 5.58 5.58 5.58zm0-10.21c2.55 0 4.63 2.08 4.63 4.63s-2.08 4.63-4.63 4.63-4.63-2.08-4.63-4.63 2.08-4.63 4.63-4.63z" transform="matrix(.26458333 0 0 .26458333 -190.7831045199 -17.65300015282)"/><path id="polygon654" d="m1509.36 940.95h.95v-134.53l46.27-46.26v-221.33h-.95v220.93l-46.27 46.27z" transform="matrix(.26458333 0 0 .26458333 -190.7831045199 -17.65300015282)"/><path id="rect660" d="m211.3703279136 139.44335203468h.2513541635v9.47208294942h-.2513541635z" stroke-width=".26458333"/><g id="g668" transform="matrix(.26458333 0 0 .26458333 -190.7831045199 -17.65300015282)"><path id="path664" d="m1314.25 463.06c0 2.82 2.28 5.1 5.1 5.1s5.1-2.28 5.1-5.1-2.28-5.1-5.1-5.1c-2.81 0-5.1 2.28-5.1 5.1z"/><path id="path666" d="m1319.36 468.64c3.08 0 5.58-2.5 5.58-5.58s-2.5-5.58-5.58-5.58-5.58 2.5-5.58 5.58 2.5 5.58 5.58 5.58zm0-10.21c2.55 0 4.63 2.08 4.63 4.63s-2.08 4.63-4.63 4.63-4.63-2.08-4.63-4.63 2.08-4.63 4.63-4.63z"/></g><g id="g674" transform="matrix(.26458333 0 0 .26458333 -190.7831045199 -17.65300015282)"><path id="path670" d="m1269.11 734.79c0 2.82 2.28 5.1 5.1 5.1s5.1-2.28 5.1-5.1-2.28-5.1-5.1-5.1c-2.82-.01-5.1 2.28-5.1 5.1z"/><path id="path672" d="m1274.21 740.36c3.08 0 5.58-2.5 5.58-5.58s-2.5-5.58-5.58-5.58-5.58 2.5-5.58 5.58 2.51 5.58 5.58 5.58zm0-10.2c2.55 0 4.63 2.08 4.63 4.63s-2.08 4.63-4.63 4.63-4.63-2.08-4.63-4.63c0-2.56 2.08-4.63 4.63-4.63z"/></g><g id="g680" transform="matrix(.26458333 0 0 .26458333 -190.7831045199 -17.65300015282)"><path id="path676" d="m1529.63 666.41c0 2.82 2.28 5.1 5.1 5.1s5.1-2.28 5.1-5.1-2.28-5.1-5.1-5.1-5.1 2.28-5.1 5.1z"/><path id="path678" d="m1534.73 671.98c3.08 0 5.58-2.5 5.58-5.58 0-3.07-2.5-5.58-5.58-5.58s-5.58 2.5-5.58 5.58 2.51 5.58 5.58 5.58zm0-10.2c2.55 0 4.63 2.08 4.63 4.63s-2.08 4.63-4.63 4.63-4.63-2.08-4.63-4.63c0-2.56 2.08-4.63 4.63-4.63z"/></g><path id="rect682" d="m108.8046000391 6.01927064686h.2513541635v64.7408950177h-.2513541635z" stroke-width=".26458333"/><path id="path686" d="m1299.45 766.56c3.07 0 5.58-2.5 5.58-5.58s-2.5-5.58-5.58-5.58-5.58 2.5-5.58 5.58 2.51 5.58 5.58 5.58zm0-10.21c2.55 0 4.63 2.08 4.63 4.63s-2.08 4.63-4.63 4.63-4.63-2.08-4.63-4.63 2.08-4.63 4.63-4.63z" transform="matrix(.26458333 0 0 .26458333 -190.7831045199 -17.65300015282)"/><path id="path690" d="m1319.36 554.96c3.08 0 5.58-2.5 5.58-5.58s-2.5-5.58-5.58-5.58-5.58 2.5-5.58 5.58c0 3.07 2.5 5.58 5.58 5.58zm0-10.21c2.55 0 4.63 2.08 4.63 4.63s-2.08 4.63-4.63 4.63-4.63-2.08-4.63-4.63 2.08-4.63 4.63-4.63z" transform="matrix(.26458333 0 0 .26458333 -190.7831045199 -17.65300015282)"/><path id="polygon694" d="m1298.98 755.88h.94v-46.75l19.91-19.91v-134.74h-.95v134.35l-19.9 19.9z" transform="matrix(.26458333 0 0 .26458333 -190.7831045199 -17.65300015282)"/><path id="path700" d="m1520.67 1089.85c3.08 0 5.58-2.5 5.58-5.58s-2.5-5.58-5.58-5.58-5.58 2.5-5.58 5.58c.01 3.08 2.51 5.58 5.58 5.58zm0-10.2c2.55 0 4.63 2.08 4.63 4.63s-2.08 4.63-4.63 4.63-4.63-2.08-4.63-4.63c0-2.56 2.08-4.63 4.63-4.63z" transform="matrix(.26458333 0 0 .26458333 -190.7831045199 -17.65300015282)"/><path id="path704" d="m1540.58 878.25c3.07 0 5.58-2.5 5.58-5.58s-2.5-5.58-5.58-5.58-5.58 2.5-5.58 5.58 2.5 5.58 5.58 5.58zm0-10.21c2.55 0 4.63 2.08 4.63 4.63s-2.08 4.63-4.63 4.63-4.63-2.08-4.63-4.63 2.08-4.63 4.63-4.63z" transform="matrix(.26458333 0 0 .26458333 -190.7831045199 -17.65300015282)"/><path id="polygon708" d="m1520.2 1079.17h.95v-46.75l19.9-19.91v-134.74h-.94v134.35l-19.91 19.91z" transform="matrix(.26458333 0 0 .26458333 -190.7831045199 -17.65300015282)"/><path id="path714" d="m1529.88 1157.52c3.08 0 5.58-2.5 5.58-5.58s-2.5-5.58-5.58-5.58-5.58 2.5-5.58 5.58 2.51 5.58 5.58 5.58zm0-10.2c2.55 0 4.63 2.08 4.63 4.63s-2.08 4.63-4.63 4.63-4.63-2.08-4.63-4.63 2.08-4.63 4.63-4.63z" transform="matrix(.26458333 0 0 .26458333 -190.7831045199 -17.65300015282)"/><path id="path718" d="m1549.79 945.92c3.07 0 5.58-2.5 5.58-5.58s-2.5-5.58-5.58-5.58-5.58 2.5-5.58 5.58 2.5 5.58 5.58 5.58zm0-10.2c2.55 0 4.63 2.08 4.63 4.63s-2.08 4.63-4.63 4.63-4.63-2.08-4.63-4.63c0-2.56 2.08-4.63 4.63-4.63z" transform="matrix(.26458333 0 0 .26458333 -190.7831045199 -17.65300015282)"/><path id="polygon722" d="m1529.41 1146.84h.94v-46.75l19.91-19.9v-134.74h-.95v134.34l-19.9 19.91z" transform="matrix(.26458333 0 0 .26458333 -190.7831045199 -17.65300015282)"/><path id="rect728" d="m158.1705577505 106.21698009911h.2513541635v14.7981456469h-.2513541635z" stroke-width=".26458333"/><path id="polygon732" d="m1307.04 567.16h-.94v114.19l-27.93 27.93.67.67 28.2-28.21z" transform="matrix(.26458333 0 0 .26458333 -190.7831045199 -17.65300015282)"/><path id="path736" d="m903.97 400.79c3.08 0 5.58-2.5 5.58-5.58s-2.5-5.58-5.58-5.58-5.58 2.5-5.58 5.58 2.51 5.58 5.58 5.58zm0-10.21c2.55 0 4.63 2.08 4.63 4.63s-2.08 4.63-4.63 4.63-4.63-2.08-4.63-4.63 2.08-4.63 4.63-4.63z" transform="matrix(.26458333 0 0 .26458333 -190.7831045199 -17.65300015282)"/><path id="path740" d="m879.08 353.34c3.08 0 5.58-2.5 5.58-5.58s-2.5-5.58-5.58-5.58c-3.07 0-5.58 2.5-5.58 5.58s2.5 5.58 5.58 5.58zm0-10.2c2.55 0 4.63 2.08 4.63 4.63s-2.08 4.63-4.63 4.63-4.63-2.08-4.63-4.63 2.07-4.63 4.63-4.63z" transform="matrix(.26458333 0 0 .26458333 -190.7831045199 -17.65300015282)"/><g id="g748" transform="matrix(.26458333 0 0 .26458333 -190.7831045199 -17.65300015282)"><path id="path744" d="m873.63 369.01c0 2.82 2.28 5.1 5.1 5.1s5.1-2.28 5.1-5.1-2.28-5.1-5.1-5.1-5.1 2.29-5.1 5.1z"/><path id="path746" d="m878.73 374.59c3.08 0 5.58-2.5 5.58-5.58 0-3.07-2.5-5.58-5.58-5.58s-5.58 2.5-5.58 5.58 2.51 5.58 5.58 5.58zm0-10.2c2.55 0 4.63 2.08 4.63 4.63s-2.08 4.63-4.63 4.63-4.63-2.08-4.63-4.63c0-2.56 2.08-4.63 4.63-4.63z"/></g><path id="polygon750" d="m903.5 390.11h.94v-46.75l19.91-19.91v-248.29h-.95v247.9l-19.9 19.9z" transform="matrix(.26458333 0 0 .26458333 -190.7831045199 -17.65300015282)"/><path id="polygon754" d="m911.56 87.84h-.94v227.74l-27.93 27.93.67.67 28.2-28.21z" transform="matrix(.26458333 0 0 .26458333 -190.7831045199 -17.65300015282)"/><path id="polygon758" d="m1096.01 381.46v67.12l22.63 22.63.67-.67-22.35-22.35v-66.33l8-8v-21.8h-.95v21.4z" transform="matrix(.26458333 0 0 .26458333 -190.7831045199 -17.65300015282)"/><path id="polygon762" d="m1525.65 744.49-16.15 16.16.67.67 16.43-16.43v-50.5l8.61-8.61v-14.27h-.95v13.88l-8.61 8.6z" transform="matrix(.26458333 0 0 .26458333 -190.7831045199 -17.65300015282)"/><path id="polygon766" d="m1254.84 290.41v-200.94h-.95v201.34l13.17 13.17.67-.67z" transform="matrix(.26458333 0 0 .26458333 -190.7831045199 -17.65300015282)"/><path id="polygon770" d="m1081.05 345.34h.95v-29.45l-11.99-11.99v-237.18h-.95v237.57l11.99 11.99z" transform="matrix(.26458333 0 0 .26458333 -190.7831045199 -17.65300015282)"/><g id="g778" transform="matrix(.26458333 0 0 .26458333 -190.7831045199 -17.65300015282)"><path id="path774" d="m1099.56 274.52c0-2.82-2.28-5.1-5.1-5.1s-5.1 2.28-5.1 5.1 2.28 5.1 5.1 5.1 5.1-2.28 5.1-5.1z"/><path id="path776" d="m1094.46 280.1c3.08 0 5.58-2.5 5.58-5.58s-2.5-5.58-5.58-5.58-5.58 2.5-5.58 5.58 2.5 5.58 5.58 5.58zm0-10.2c2.55 0 4.63 2.08 4.63 4.63s-2.08 4.63-4.63 4.63-4.63-2.08-4.63-4.63 2.07-4.63 4.63-4.63z"/></g><path id="polygon780" d="m1079.17 257.74v-188.94h-.95v189.34l13.17 13.17.67-.67z" transform="matrix(.26458333 0 0 .26458333 -190.7831045199 -17.65300015282)"/><path id="polygon784" d="m1234.91 89.85h-.95v219.57l-11.58 11.58.67.67 11.86-11.86z" transform="matrix(.26458333 0 0 .26458333 -190.7831045199 -17.65300015282)"/><path id="path788" d="m1347.78 302.57h40.06v-24.57h-40.06zm39.11-.95h-38.16v-22.67h38.16z" transform="matrix(.26458333 0 0 .26458333 -190.7831045199 -17.65300015282)"/><path id="rect792" d="m175.58276023947 62.27497800688h.2513541635v1.6562916458h-.2513541635z" stroke-width=".26458333"/><path id="rect796" d="m174.0508492171 62.27497800688h.2513541635v1.6562916458h-.2513541635z" stroke-width=".26458333"/><path id="rect800" d="m172.5215575697 62.27497800688h.2513541635v1.6562916458h-.2513541635z" stroke-width=".26458333"/><path id="rect804" d="m170.9922659223 62.27497800688h.2513541635v1.6562916458h-.2513541635z" stroke-width=".26458333"/><path id="rect808" d="m169.4603284416 62.27497800688h.2513541635v1.6562916458h-.2513541635z" stroke-width=".26458333"/><path id="rect812" d="m167.9310367942 62.27497800688h.2513541635v1.6562916458h-.2513541635z" stroke-width=".26458333"/><path id="rect816" d="m166.4017451468 62.27497800688h.2513541635v1.6562916458h-.2513541635z" stroke-width=".26458333"/><path id="rect822" d="m175.58276023947 54.37187393978h.2513541635v1.6562916458h-.2513541635z" stroke-width=".26458333"/><path id="rect826" d="m174.0508492171 54.37187393978h.2513541635v1.6562916458h-.2513541635z" stroke-width=".26458333"/><path id="rect830" d="m172.5215575697 54.37187393978h.2513541635v1.6562916458h-.2513541635z" stroke-width=".26458333"/><path id="rect834" d="m170.9922659223 54.37187393978h.2513541635v1.6562916458h-.2513541635z" stroke-width=".26458333"/><path id="rect838" d="m169.4603284416 54.37187393978h.2513541635v1.6562916458h-.2513541635z" stroke-width=".26458333"/><path id="rect842" d="m167.9310367942 54.37187393978h.2513541635v1.6562916458h-.2513541635z" stroke-width=".26458333"/><path id="rect846" d="m166.4017451468 54.37187393978h.2513541635v1.6562916458h-.2513541635z" stroke-width=".26458333"/><path id="polygon852" d="m1117.38 94.58h-.94v196.39l-14.16 14.16.67.67 14.43-14.44z" transform="matrix(.26458333 0 0 .26458333 -190.7831045199 -17.65300015282)"/><path id="polygon856" d="m1061.21 388.22h.95v-37.62l-50.66-50.66v-210.47h-.95v210.86l50.66 50.66z" transform="matrix(.26458333 0 0 .26458333 -190.7831045199 -17.65300015282)"/><path id="polygon860" d="m1026.49 280.17v-208.7h-.95v209.1l16.76 16.75.67-.67z" transform="matrix(.26458333 0 0 .26458333 -190.7831045199 -17.65300015282)"/><path id="polygon864" d="m1000.44 318.9v-247.43h-.95v247.82l11.2 11.2.67-.67z" transform="matrix(.26458333 0 0 .26458333 -190.7831045199 -17.65300015282)"/><path id="polygon868" d="m977.22 87.84h-.95v271.49l-18.34 18.35.67.67 18.62-18.63z" transform="matrix(.26458333 0 0 .26458333 -190.7831045199 -17.65300015282)"/><path id="polygon872" d="m959.16 314.79-27.54 27.54.67.67 27.82-27.82v-62.05l-14.2-14.19v-146.37h-.95v146.76l14.2 14.2z" transform="matrix(.26458333 0 0 .26458333 -190.7831045199 -17.65300015282)"/><path id="polygon876" d="m859.3 263.12v-168.54h-.94v168.93l15.28 15.28.67-.67z" transform="matrix(.26458333 0 0 .26458333 -190.7831045199 -17.65300015282)"/><path id="polygon880" d="m781.55 98.46h-.95v196.31l-13.63 13.64.67.67 13.91-13.91z" transform="matrix(.26458333 0 0 .26458333 -190.7831045199 -17.65300015282)"/><path id="polygon884" d="m796.27 262.25v-163.79h-.95v164.19l21.99 21.99.67-.67z" transform="matrix(.26458333 0 0 .26458333 -190.7831045199 -17.65300015282)"/><path id="rect888" d="m23.13781474337 9.35831200688h.2513541635v37.359166196h-.2513541635z" stroke-width=".26458333"/><path id="polygon892" d="m740.66 109.95h-.95v128.39l-9.49 9.49.67.67 9.77-9.77z" transform="matrix(.26458333 0 0 .26458333 -190.7831045199 -17.65300015282)"/><path id="rect896" d="m6.94531230153.53710378468h.2513541635v51.9456451789h-.2513541635z" stroke-width=".26458333"/><path id="rect900" d="m165.2058284952 50.29199634535h11.81893682193v1.0371666536h-11.81893682193z" stroke-width=".26458333"/><path id="rect904" d="m165.2058284952 48.06949637335h11.81893682193v1.0371666536h-11.81893682193z" stroke-width=".26458333"/><path id="rect908" d="m165.2058284952 45.84964223465h11.81893682193v1.0371666536h-11.81893682193z" stroke-width=".26458333"/><path id="rect912" d="m165.2058284952 43.62979074178h11.81893682193v1.0371666536h-11.81893682193z" stroke-width=".26458333"/><path id="rect916" d="m165.2058284952 41.40993660308h11.81893682193v1.0371666536h-11.81893682193z" stroke-width=".26458333"/><path id="rect922" d="m189.90206297573 158.18644306938h6.14362465802v1.3705416494h-6.14362465802z" stroke-width=".26458333"/><path id="rect926" d="m189.90206297573 155.24955752305h6.14362465802v1.3705416494h-6.14362465802z" stroke-width=".26458333"/><path id="rect930" d="m189.90206297573 152.31003937258h6.14362465802v1.3705416494h-6.14362465802z" stroke-width=".26458333"/><path id="rect934" d="m189.90206297573 149.37317234708h6.14362465802v1.3705416494h-6.14362465802z" stroke-width=".26458333"/><path id="rect938" d="m189.90206297573 146.43363832161h6.14362465802v1.3705416494h-6.14362465802z" stroke-width=".26458333"/>
</symbol>
<symbol id="lines_5" height="93.982643mm" viewBox="0 0 48.127708 93.982643" width="48.127708mm">
	<g stroke-width="1.00157"><path id="path1622" d="m1239.17 498.42c5.89 0 10.68 4.79 10.68 10.68s-4.79 10.68-10.68 10.68-10.68-4.79-10.68-10.68 4.79-10.68 10.68-10.68zm0 20.41c5.37 0 9.73-4.37 9.73-9.73 0-5.37-4.37-9.73-9.73-9.73-5.37 0-9.73 4.37-9.73 9.73-.01 5.37 4.36 9.73 9.73 9.73z" transform="matrix(.26458333 0 0 .26458333 -311.75589 -112.76277)"/><path id="path1626" d="m1332.4 431.3c5.89 0 10.68 4.79 10.68 10.68s-4.79 10.68-10.68 10.68-10.68-4.79-10.68-10.68 4.79-10.68 10.68-10.68zm0 20.41c5.37 0 9.73-4.37 9.73-9.73s-4.37-9.73-9.73-9.73-9.73 4.37-9.73 9.73 4.36 9.73 9.73 9.73z" transform="matrix(.26458333 0 0 .26458333 -311.43872 -112.85322)"/><path id="path1630" d="m1260.89 539.76c3.08 0 5.58 2.5 5.58 5.58s-2.5 5.58-5.58 5.58-5.58-2.5-5.58-5.58c.01-3.08 2.51-5.58 5.58-5.58zm0 10.21c2.55 0 4.63-2.08 4.63-4.63s-2.08-4.63-4.63-4.63-4.63 2.08-4.63 4.63 2.08 4.63 4.63 4.63z" transform="matrix(.26458333 0 0 .26458333 -311.75589 -112.76277)"/><path id="path1634" d="m1203.85 534.66c3.08 0 5.58 2.5 5.58 5.58s-2.5 5.58-5.58 5.58-5.58-2.5-5.58-5.58c.01-3.08 2.51-5.58 5.58-5.58zm0 10.2c2.55 0 4.63-2.08 4.63-4.63s-2.08-4.63-4.63-4.63-4.63 2.08-4.63 4.63c.01 2.56 2.08 4.63 4.63 4.63z" transform="matrix(.26458333 0 0 .26458333 -311.6404 -113.13367)"/><path id="path1638" d="m1310.77 474.44c3.08 0 5.58 2.5 5.58 5.58 0 3.07-2.5 5.58-5.58 5.58s-5.58-2.5-5.58-5.58 2.5-5.58 5.58-5.58zm0 10.21c2.55 0 4.63-2.08 4.63-4.63s-2.08-4.63-4.63-4.63-4.63 2.08-4.63 4.63 2.07 4.63 4.63 4.63z" transform="matrix(.26458333 0 0 .26458333 -311.75589 -112.76277)"/><g id="g1646" transform="matrix(.26458333 0 0 .26458333 -311.75589 -112.76277)"><path id="path1642" d="m1333.87 521.52c0 2.82-2.28 5.1-5.1 5.1s-5.1-2.28-5.1-5.1 2.28-5.1 5.1-5.1 5.1 2.28 5.1 5.1z"/><path id="path1644" d="m1328.76 515.94c3.08 0 5.58 2.5 5.58 5.58 0 3.07-2.5 5.58-5.58 5.58s-5.58-2.5-5.58-5.58c.01-3.08 2.51-5.58 5.58-5.58zm0 10.21c2.55 0 4.63-2.08 4.63-4.63s-2.08-4.63-4.63-4.63-4.63 2.08-4.63 4.63c.01 2.55 2.08 4.63 4.63 4.63z"/></g><g id="g1652" transform="matrix(.26458333 0 0 .26458333 -311.75972 -112.62351)"><path id="path1648" d="m1197.07 577.62c0 2.82-2.28 5.1-5.1 5.1s-5.1-2.28-5.1-5.1 2.28-5.1 5.1-5.1c2.81 0 5.1 2.28 5.1 5.1z"/><path id="path1650" d="m1191.96 572.04c3.08 0 5.58 2.5 5.58 5.58s-2.5 5.58-5.58 5.58-5.58-2.5-5.58-5.58c.01-3.08 2.51-5.58 5.58-5.58zm0 10.21c2.55 0 4.63-2.08 4.63-4.63s-2.08-4.63-4.63-4.63-4.63 2.08-4.63 4.63c.01 2.55 2.08 4.63 4.63 4.63z"/></g><path id="path1654" d="m1328.76 531.99c3.08 0 5.58 2.5 5.58 5.58 0 3.07-2.5 5.58-5.58 5.58s-5.58-2.5-5.58-5.58c.01-3.07 2.51-5.58 5.58-5.58zm0 10.21c2.55 0 4.63-2.08 4.63-4.63s-2.08-4.63-4.63-4.63-4.63 2.08-4.63 4.63c.01 2.55 2.08 4.63 4.63 4.63z" transform="matrix(.26458333 0 0 .26458333 -311.75589 -112.76277)"/><path id="path1658" d="m1328.76 548.05c3.08 0 5.58 2.5 5.58 5.58s-2.5 5.58-5.58 5.58-5.58-2.5-5.58-5.58c.01-3.08 2.51-5.58 5.58-5.58zm0 10.2c2.55 0 4.63-2.08 4.63-4.63s-2.08-4.63-4.63-4.63-4.63 2.08-4.63 4.63c.01 2.56 2.08 4.63 4.63 4.63z" transform="matrix(.26458333 0 0 .26458333 -311.75589 -112.76277)"/><path id="path1662" d="m1286.94 426.19c3.08 0 5.58 2.5 5.58 5.58s-2.5 5.58-5.58 5.58-5.58-2.5-5.58-5.58c0-3.07 2.51-5.58 5.58-5.58zm0 10.21c2.55 0 4.63-2.08 4.63-4.63s-2.08-4.63-4.63-4.63-4.63 2.08-4.63 4.63 2.08 4.63 4.63 4.63z" transform="matrix(.26458333 0 0 .26458333 -311.75589 -112.76277)"/><path id="path1666" d="m1262.05 473.64c3.08 0 5.58 2.5 5.58 5.58s-2.5 5.58-5.58 5.58c-3.07 0-5.58-2.5-5.58-5.58s2.5-5.58 5.58-5.58zm0 10.2c2.55 0 4.63-2.08 4.63-4.63s-2.08-4.63-4.63-4.63-4.63 2.08-4.63 4.63 2.07 4.63 4.63 4.63z" transform="matrix(.26458333 0 0 .26458333 -311.75589 -112.76277)"/><g id="g1674" transform="matrix(.26458333 0 0 .26458333 -311.75589 -112.76277)"><path id="path1670" d="m1256.6 457.97c0-2.82 2.28-5.1 5.1-5.1s5.1 2.28 5.1 5.1-2.28 5.1-5.1 5.1-5.1-2.29-5.1-5.1z"/><path id="path1672" d="m1261.7 452.39c3.08 0 5.58 2.5 5.58 5.58 0 3.07-2.5 5.58-5.58 5.58s-5.58-2.5-5.58-5.58 2.51-5.58 5.58-5.58zm0 10.2c2.55 0 4.63-2.08 4.63-4.63s-2.08-4.63-4.63-4.63-4.63 2.08-4.63 4.63c0 2.56 2.08 4.63 4.63 4.63z"/></g><path id="polygon1676" d="m1287.42 483.62 19.9 19.91v248.29h-.94v-247.9l-19.91-19.9v-47.15h.95z" transform="matrix(.26458333 0 0 .26458333 -311.75589 -112.76277)"/><path id="polygon1680" d="m1293.59 511.4-27.93-27.92.67-.67 28.21 28.2v228.13h-.95z" transform="matrix(.26458333 0 0 .26458333 -311.75589 -112.76277)"/><path id="polygon1684" d="m1359.25 467.65-18.35-18.35.67-.67 18.62 18.63v271.88h-.94z" transform="matrix(.26458333 0 0 .26458333 -311.75589 -112.76277)"/><path id="polygon1688" d="m1315.26 483.98 27.82 27.82v62.05l-14.2 14.19v146.37h-.95v-146.76l14.2-14.2v-61.26l-27.54-27.54z" transform="matrix(.26458333 0 0 .26458333 -311.75589 -112.76277)"/><path id="polygon1692" d="m1241.33 781.4v-217.93l15.28-15.28.67.67-15 15v217.54z" transform="matrix(.26458333 0 0 .26458333 -311.75589 -112.76277)"/><path id="polygon1696" d="m1178.29 777.52v-213.18l22-22 .67.67-21.72 21.72v212.79z" transform="matrix(.26458333 0 0 .26458333 -311.75589 -112.76277)"/></g><path id="rect1700" d="m3.4925018617 41.6718738877h.2513541635v50.323749366h-.2513541635z" stroke-width=".26499872583"/>
</symbol>
<symbol id="icon-edit" viewBox="0 0 32 32">
<path d="M27 0c2.761 0 5 2.239 5 5 0 1.126-0.372 2.164-1 3l-2 2-7-7 2-2c0.836-0.628 1.874-1 3-1zM2 23l-2 9 9-2 18.5-18.5-7-7-18.5 18.5zM22.362 11.362l-14 14-1.724-1.724 14-14 1.724 1.724z"></path>
</symbol>
<symbol id="icon-ticket" viewBox="0 0 32 32">
<path d="M18 10l4 4-8 8-4-4zM31.298 9.297l-2.297-2.297-1 1c-0.512 0.512-1.219 0.828-2 0.828-1.562 0-2.829-1.266-2.829-2.828 0-0.781 0.317-1.489 0.829-2.001l1-1-2.297-2.297c-0.936-0.936-2.469-0.936-3.405 0l-18.595 18.595c-0.936 0.936-0.936 2.469 0 3.405l2.297 2.297 0.999-0.999c0.512-0.513 1.22-0.83 2.001-0.83 1.562 0 2.828 1.266 2.828 2.828 0 0.781-0.317 1.489-0.829 2.001l-1 1 2.297 2.297c0.936 0.936 2.469 0.936 3.405 0l18.595-18.595c0.936-0.937 0.936-2.469 0-3.406zM14 26l-8-8 12-12 8 8-12 12z"></path>
</symbol>
<symbol id="icon-checkout" viewBox="0 0 32 32">
<path d="M12 29c0 1.657-1.343 3-3 3s-3-1.343-3-3c0-1.657 1.343-3 3-3s3 1.343 3 3z"></path>
<path d="M32 29c0 1.657-1.343 3-3 3s-3-1.343-3-3c0-1.657 1.343-3 3-3s3 1.343 3 3z"></path>
<path d="M32 16v-12h-24c0-1.105-0.895-2-2-2h-6v2h4l1.502 12.877c-0.915 0.733-1.502 1.859-1.502 3.123 0 2.209 1.791 4 4 4h24v-2h-24c-1.105 0-2-0.895-2-2 0-0.007 0-0.014 0-0.020l26-3.98z"></path>
</symbol>
<symbol id="icon-name" viewBox="0 0 32 32">
<path d="M18 22.082v-1.649c2.203-1.241 4-4.337 4-7.432 0-4.971 0-9-6-9s-6 4.029-6 9c0 3.096 1.797 6.191 4 7.432v1.649c-6.784 0.555-12 3.888-12 7.918h28c0-4.030-5.216-7.364-12-7.918z"></path>
</symbol>
<symbol id="icon-add" viewBox="0 0 32 32">
<path d="M12 23c0-4.726 2.996-8.765 7.189-10.319 0.509-1.142 0.811-2.411 0.811-3.681 0-4.971 0-9-6-9s-6 4.029-6 9c0 3.096 1.797 6.191 4 7.432v1.649c-6.784 0.555-12 3.888-12 7.918h12.416c-0.271-0.954-0.416-1.96-0.416-3z"></path>
<path d="M23 14c-4.971 0-9 4.029-9 9s4.029 9 9 9c4.971 0 9-4.029 9-9s-4.029-9-9-9zM28 24h-4v4h-2v-4h-4v-2h4v-4h2v4h4v2z"></path>
</symbol>
<symbol id="icon-remove" viewBox="0 0 32 32">
<path d="M12 23c0-4.726 2.996-8.765 7.189-10.319 0.509-1.142 0.811-2.411 0.811-3.681 0-4.971 0-9-6-9s-6 4.029-6 9c0 3.096 1.797 6.191 4 7.432v1.649c-6.784 0.555-12 3.888-12 7.918h12.416c-0.271-0.954-0.416-1.96-0.416-3z"></path>
<path d="M23 14c-4.971 0-9 4.029-9 9s4.029 9 9 9c4.971 0 9-4.029 9-9s-4.029-9-9-9zM28 24h-10v-2h10v2z"></path>
</symbol>
<symbol id="icon-phone" viewBox="0 0 32 32">
<path d="M22 20c-2 2-2 4-4 4s-4-2-6-4-4-4-4-6 2-2 4-4-4-8-6-8-6 6-6 6c0 4 4.109 12.109 8 16s12 8 16 8c0 0 6-4 6-6s-6-8-8-6z"></path>
</symbol>
<symbol id="icon-email" viewBox="0 0 32 32">
<path d="M29 4h-26c-1.65 0-3 1.35-3 3v20c0 1.65 1.35 3 3 3h26c1.65 0 3-1.35 3-3v-20c0-1.65-1.35-3-3-3zM12.461 17.199l-8.461 6.59v-15.676l8.461 9.086zM5.512 8h20.976l-10.488 7.875-10.488-7.875zM12.79 17.553l3.21 3.447 3.21-3.447 6.58 8.447h-19.579l6.58-8.447zM19.539 17.199l8.461-9.086v15.676l-8.461-6.59z"></path>
</symbol>
</defs>
</svg>
