{
    "site_title": "A.IL Academy",
    "event_name": "A.IL Academy",
    "event_full_name": "AutomationIL",
    "event_phrase": "Automation on beer",
    "event_date": "14.03.2023 | 17:30 - 20:30",
    "event_location": "SentinelOne Offices",
    "copyright_holder": "Copyright &copy; 2022. by <a href=\"http://way2cu.com\" target=\"_blank\">Way2CU</a>.",
    "copyright_text": "All rights reserved.",
    "submit": "תרשמו אותי",
    "button_book": "תרשמו אותי",
    "button_book_short": "תרשמו אותי",
    "button_change": "שינוי",
    "button_save": "שמירה",
    "button_cancel": "ביטול",

    "button_add": "הוסיפו כרטיס",
    "button_remove": "הסירו",
    "label_name": "שם מלא:",
    "label_email": "כתובת אימייל:",
    "label_phone": "מספר טלפון:",
    "title_sponsors": "נותני החסות של המפגש שלנו"
}
